2017.02.08 11:38:27.825, system.log.file, /Users/int01/intervall/log/int01_subj127_01.log
2017.02.08 11:38:28.326, system.begin, None
2017.02.08 11:38:28.326, system.version, int01_1_0
2017.02.08 11:38:28.326, system.operator, Malin Hurtig
2017.02.08 11:38:28.327, system.subject, 127
2017.02.08 11:38:28.327, system.session.begin, A
2017.02.08 11:40:07.774, subject.begin, A
2017.02.08 11:40:07.829, system.stimuliset, [24, 9, 4, 20, 5, 11, 27, 28, 12, 2, 8, 0, 29, 15, 14, 10, 6, 7, 17, 21, 18, 16, 19, 3, 25, 30, 22, 13, 1, 26, 23]
2017.02.08 11:40:08.257, subject.loaded, A
2017.02.08 11:40:08.257, subject.play, A
2017.02.08 11:40:08.260, system.simulus, 49
2017.02.08 11:40:08.260, system.simulus, 48
2017.02.08 11:40:40.775, subject.play, B
2017.02.08 11:40:40.778, system.simulus, 49
2017.02.08 11:40:50.773, subject.play, A
2017.02.08 11:40:50.776, system.simulus, 49
2017.02.08 11:40:50.777, system.simulus, 48
2017.02.08 11:41:02.950, subject.play, B
2017.02.08 11:41:02.953, system.simulus, 49
2017.02.08 11:41:12.007, subject.play, A
2017.02.08 11:41:12.010, system.simulus, 49
2017.02.08 11:41:12.010, system.simulus, 48
2017.02.08 11:41:51.008, subject.play, B
2017.02.08 11:41:51.011, system.simulus, 49
2017.02.08 11:42:17.716, subject.play, A
2017.02.08 11:42:17.718, system.simulus, 49
2017.02.08 11:42:17.719, system.simulus, 48
2017.02.08 11:42:51.201, subject.next, {u'high': 50, u'type': u'A', u'low': -1}
2017.02.08 11:42:51.719, subject.loaded, A
2017.02.08 11:42:51.719, subject.play, A
2017.02.08 11:42:51.721, system.simulus, 19
2017.02.08 11:42:51.722, system.simulus, 18
2017.02.08 11:43:07.395, subject.play, B
2017.02.08 11:43:07.397, system.simulus, 19
2017.02.08 11:43:20.990, subject.play, A
2017.02.08 11:43:20.992, system.simulus, 19
2017.02.08 11:43:20.993, system.simulus, 18
2017.02.08 11:43:36.554, subject.play, B
2017.02.08 11:43:36.557, system.simulus, 19
2017.02.08 11:43:40.978, subject.play, A
2017.02.08 11:43:40.981, system.simulus, 19
2017.02.08 11:43:40.981, system.simulus, 18
2017.02.08 11:44:30.616, subject.next, {u'high': 50, u'type': u'A', u'low': -1}
2017.02.08 11:44:31.080, subject.loaded, A
2017.02.08 11:44:31.081, subject.play, A
2017.02.08 11:44:31.083, system.simulus, 9
2017.02.08 11:44:31.084, system.simulus, 8
2017.02.08 11:44:40.478, subject.play, B
2017.02.08 11:44:40.481, system.simulus, 9
2017.02.08 11:44:45.150, subject.play, A
2017.02.08 11:44:45.152, system.simulus, 9
2017.02.08 11:44:45.153, system.simulus, 8
2017.02.08 11:45:24.946, subject.next, {u'high': 40, u'type': u'A', u'low': -1}
2017.02.08 11:45:25.415, subject.loaded, A
2017.02.08 11:45:25.416, subject.play, A
2017.02.08 11:45:25.419, system.simulus, 41
2017.02.08 11:45:25.419, system.simulus, 40
2017.02.08 11:45:30.874, subject.play, A
2017.02.08 11:45:30.877, system.simulus, 41
2017.02.08 11:45:30.878, system.simulus, 40
2017.02.08 11:45:47.638, subject.play, B
2017.02.08 11:45:47.641, system.simulus, 41
2017.02.08 11:45:50.468, subject.play, A
2017.02.08 11:45:50.471, system.simulus, 41
2017.02.08 11:45:50.471, system.simulus, 40
2017.02.08 11:46:03.634, subject.next, {u'high': 20, u'type': u'A', u'low': -1}
2017.02.08 11:46:04.095, subject.loaded, A
2017.02.08 11:46:04.095, subject.play, A
2017.02.08 11:46:04.098, system.simulus, 11
2017.02.08 11:46:04.098, system.simulus, 10
2017.02.08 11:46:12.674, subject.play, B
2017.02.08 11:46:12.677, system.simulus, 11
2017.02.08 11:46:15.831, subject.play, A
2017.02.08 11:46:15.834, system.simulus, 11
2017.02.08 11:46:15.834, system.simulus, 10
2017.02.08 11:46:51.754, subject.next, {u'high': 20, u'type': u'A', u'low': -1}
2017.02.08 11:46:52.312, subject.loaded, A
2017.02.08 11:46:52.313, subject.play, A
2017.02.08 11:46:52.315, system.simulus, 23
2017.02.08 11:46:52.316, system.simulus, 22
2017.02.08 11:47:17.625, subject.play, B
2017.02.08 11:47:17.627, system.simulus, 23
2017.02.08 11:47:19.902, subject.play, A
2017.02.08 11:47:19.905, system.simulus, 23
2017.02.08 11:47:19.905, system.simulus, 22
2017.02.08 11:47:56.789, subject.next, {u'high': 20, u'type': u'A', u'low': -1}
2017.02.08 11:47:57.338, subject.loaded, A
2017.02.08 11:47:57.338, subject.play, A
2017.02.08 11:47:57.341, system.simulus, 53
2017.02.08 11:47:57.342, system.simulus, 52
2017.02.08 11:47:59.581, subject.play, A
2017.02.08 11:47:59.583, system.simulus, 53
2017.02.08 11:47:59.584, system.simulus, 52
2017.02.08 11:48:05.433, subject.play, B
2017.02.08 11:48:05.436, system.simulus, 53
2017.02.08 11:48:09.143, subject.play, A
2017.02.08 11:48:09.146, system.simulus, 53
2017.02.08 11:48:09.147, system.simulus, 52
2017.02.08 11:48:18.247, subject.next, {u'high': 20, u'type': u'A', u'low': -1}
2017.02.08 11:48:18.683, subject.loaded, A
2017.02.08 11:48:18.683, subject.play, A
2017.02.08 11:48:18.686, system.simulus, 53
2017.02.08 11:48:18.687, system.simulus, 52
2017.02.08 11:48:23.436, subject.play, B
2017.02.08 11:48:23.439, system.simulus, 53
2017.02.08 11:48:26.712, subject.play, A
2017.02.08 11:48:26.715, system.simulus, 53
2017.02.08 11:48:26.716, system.simulus, 52
2017.02.08 11:48:36.286, subject.next, {u'high': 20, u'type': u'A', u'low': -1}
2017.02.08 11:48:36.733, subject.loaded, A
2017.02.08 11:48:36.733, subject.play, A
2017.02.08 11:48:36.736, system.simulus, 25
2017.02.08 11:48:36.736, system.simulus, 24
2017.02.08 11:49:08.729, subject.play, A
2017.02.08 11:49:08.731, system.simulus, 25
2017.02.08 11:49:08.732, system.simulus, 24
2017.02.08 11:49:09.745, subject.play, A
2017.02.08 11:49:09.748, system.simulus, 25
2017.02.08 11:49:09.748, system.simulus, 24
2017.02.08 11:49:10.825, subject.play, B
2017.02.08 11:49:10.827, system.simulus, 25
2017.02.08 11:49:12.948, subject.play, A
2017.02.08 11:49:12.951, system.simulus, 25
2017.02.08 11:49:12.951, system.simulus, 24
2017.02.08 11:49:17.676, subject.next, {u'high': 20, u'type': u'A', u'low': -1}
2017.02.08 11:49:18.141, subject.loaded, A
2017.02.08 11:49:18.141, subject.play, A
2017.02.08 11:49:18.144, system.simulus, 5
2017.02.08 11:49:18.144, system.simulus, 4
2017.02.08 11:49:41.895, subject.play, B
2017.02.08 11:49:41.898, system.simulus, 5
2017.02.08 11:49:47.015, subject.next, {u'high': 20, u'type': u'A', u'low': -1}
2017.02.08 11:49:47.453, subject.loaded, A
2017.02.08 11:49:47.453, subject.play, A
2017.02.08 11:49:47.455, system.simulus, 17
2017.02.08 11:49:47.456, system.simulus, 16
2017.02.08 11:49:56.361, subject.play, B
2017.02.08 11:49:56.363, system.simulus, 17
2017.02.08 11:49:59.706, subject.play, A
2017.02.08 11:49:59.709, system.simulus, 17
2017.02.08 11:49:59.709, system.simulus, 16
2017.02.08 11:50:22.739, subject.next, {u'high': 40, u'type': u'A', u'low': -1}
2017.02.08 11:50:23.155, subject.loaded, A
2017.02.08 11:50:23.156, subject.play, A
2017.02.08 11:50:23.158, system.simulus, 1
2017.02.08 11:50:23.159, system.simulus, 0
2017.02.08 11:50:41.532, subject.play, B
2017.02.08 11:50:41.535, system.simulus, 1
2017.02.08 11:50:43.848, subject.play, A
2017.02.08 11:50:43.851, system.simulus, 1
2017.02.08 11:50:43.851, system.simulus, 0
2017.02.08 11:50:57.745, subject.next, {u'high': 40, u'type': u'A', u'low': -1}
2017.02.08 11:50:58.229, subject.loaded, A
2017.02.08 11:50:58.230, subject.play, A
2017.02.08 11:50:58.232, system.simulus, 53
2017.02.08 11:50:58.233, system.simulus, 52
2017.02.08 11:51:07.039, subject.play, B
2017.02.08 11:51:07.041, system.simulus, 53
2017.02.08 11:51:09.023, subject.play, A
2017.02.08 11:51:09.026, system.simulus, 53
2017.02.08 11:51:09.026, system.simulus, 52
2017.02.08 11:51:36.383, subject.next, {u'high': 30, u'type': u'A', u'low': -1}
2017.02.08 11:51:36.828, subject.loaded, A
2017.02.08 11:51:36.828, subject.play, A
2017.02.08 11:51:36.831, system.simulus, 31
2017.02.08 11:51:36.831, system.simulus, 30
2017.02.08 11:52:01.948, subject.play, B
2017.02.08 11:52:01.951, system.simulus, 31
2017.02.08 11:52:03.455, subject.play, A
2017.02.08 11:52:03.458, system.simulus, 31
2017.02.08 11:52:03.458, system.simulus, 30
2017.02.08 11:52:24.535, subject.next, {u'high': 60, u'type': u'A', u'low': -1}
2017.02.08 11:52:24.976, subject.loaded, A
2017.02.08 11:52:24.976, subject.play, A
2017.02.08 11:52:24.979, system.simulus, 29
2017.02.08 11:52:24.979, system.simulus, 28
2017.02.08 11:52:28.990, subject.play, B
2017.02.08 11:52:28.992, system.simulus, 29
2017.02.08 11:52:30.855, subject.play, A
2017.02.08 11:52:30.858, system.simulus, 29
2017.02.08 11:52:30.858, system.simulus, 28
2017.02.08 11:52:49.416, subject.next, {u'high': 30, u'type': u'A', u'low': -1}
2017.02.08 11:52:49.881, subject.loaded, A
2017.02.08 11:52:49.882, subject.play, A
2017.02.08 11:52:49.884, system.simulus, 21
2017.02.08 11:52:49.885, system.simulus, 20
2017.02.08 11:52:58.274, subject.play, B
2017.02.08 11:52:58.277, system.simulus, 21
2017.02.08 11:52:59.935, subject.play, A
2017.02.08 11:52:59.938, system.simulus, 21
2017.02.08 11:52:59.938, system.simulus, 20
2017.02.08 11:53:12.855, subject.next, {u'high': 60, u'type': u'A', u'low': -1}
2017.02.08 11:53:13.280, subject.loaded, A
2017.02.08 11:53:13.281, subject.play, A
2017.02.08 11:53:13.283, system.simulus, 13
2017.02.08 11:53:13.284, system.simulus, 12
2017.02.08 11:53:19.152, subject.play, A
2017.02.08 11:53:19.155, system.simulus, 13
2017.02.08 11:53:19.155, system.simulus, 12
2017.02.08 11:53:21.324, subject.play, B
2017.02.08 11:53:21.327, system.simulus, 13
2017.02.08 11:53:23.123, subject.play, A
2017.02.08 11:53:23.125, system.simulus, 13
2017.02.08 11:53:23.126, system.simulus, 12
2017.02.08 11:53:40.903, subject.next, {u'high': 10, u'type': u'A', u'low': -1}
2017.02.08 11:53:41.334, subject.loaded, A
2017.02.08 11:53:41.335, subject.play, A
2017.02.08 11:53:41.337, system.simulus, 15
2017.02.08 11:53:41.338, system.simulus, 14
2017.02.08 11:54:14.818, subject.play, B
2017.02.08 11:54:14.820, system.simulus, 15
2017.02.08 11:54:16.807, subject.play, A
2017.02.08 11:54:16.809, system.simulus, 15
2017.02.08 11:54:16.810, system.simulus, 14
2017.02.08 11:54:30.975, subject.next, {u'high': 30, u'type': u'A', u'low': -1}
2017.02.08 11:54:31.423, subject.loaded, A
2017.02.08 11:54:31.424, subject.play, A
2017.02.08 11:54:31.426, system.simulus, 35
2017.02.08 11:54:31.426, system.simulus, 34
2017.02.08 11:54:48.783, subject.play, B
2017.02.08 11:54:48.786, system.simulus, 35
2017.02.08 11:54:50.022, subject.play, A
2017.02.08 11:54:50.025, system.simulus, 35
2017.02.08 11:54:50.025, system.simulus, 34
2017.02.08 11:55:08.968, subject.next, {u'high': 40, u'type': u'A', u'low': -1}
2017.02.08 11:55:09.441, subject.loaded, A
2017.02.08 11:55:09.441, subject.play, A
2017.02.08 11:55:09.443, system.simulus, 43
2017.02.08 11:55:09.444, system.simulus, 42
2017.02.08 11:55:19.230, subject.play, B
2017.02.08 11:55:19.233, system.simulus, 43
2017.02.08 11:55:22.702, subject.play, A
2017.02.08 11:55:22.705, system.simulus, 43
2017.02.08 11:55:22.705, system.simulus, 42
2017.02.08 11:55:51.309, subject.next, {u'high': 60, u'type': u'A', u'low': -1}
2017.02.08 11:55:51.716, subject.loaded, A
2017.02.08 11:55:51.717, subject.play, A
2017.02.08 11:55:51.719, system.simulus, 37
2017.02.08 11:55:51.720, system.simulus, 36
2017.02.08 11:55:58.627, subject.play, B
2017.02.08 11:55:58.629, system.simulus, 37
2017.02.08 11:56:00.499, subject.play, A
2017.02.08 11:56:00.502, system.simulus, 37
2017.02.08 11:56:00.502, system.simulus, 36
2017.02.08 11:56:06.699, subject.next, {u'high': 10, u'type': u'A', u'low': -1}
2017.02.08 11:56:07.277, subject.loaded, A
2017.02.08 11:56:07.278, subject.play, A
2017.02.08 11:56:07.280, system.simulus, 33
2017.02.08 11:56:07.280, system.simulus, 32
2017.02.08 11:56:18.622, subject.play, B
2017.02.08 11:56:18.626, system.simulus, 33
2017.02.08 11:56:20.395, subject.play, A
2017.02.08 11:56:20.398, system.simulus, 33
2017.02.08 11:56:20.399, system.simulus, 32
2017.02.08 11:56:43.323, subject.next, {u'high': 20, u'type': u'A', u'low': -1}
2017.02.08 11:56:43.810, subject.loaded, A
2017.02.08 11:56:43.811, subject.play, A
2017.02.08 11:56:43.813, system.simulus, 39
2017.02.08 11:56:43.814, system.simulus, 38
2017.02.08 11:56:52.016, subject.play, B
2017.02.08 11:56:52.019, system.simulus, 39
2017.02.08 11:56:53.670, subject.play, A
2017.02.08 11:56:53.673, system.simulus, 39
2017.02.08 11:56:53.673, system.simulus, 38
2017.02.08 11:56:59.915, subject.next, {u'high': 20, u'type': u'A', u'low': -1}
2017.02.08 11:57:00.440, subject.loaded, A
2017.02.08 11:57:00.441, subject.play, A
2017.02.08 11:57:00.443, system.simulus, 7
2017.02.08 11:57:00.443, system.simulus, 6
2017.02.08 11:57:09.792, subject.play, B
2017.02.08 11:57:09.794, system.simulus, 7
2017.02.08 11:57:11.491, subject.play, A
2017.02.08 11:57:11.493, system.simulus, 7
2017.02.08 11:57:11.494, system.simulus, 6
2017.02.08 11:57:17.350, subject.next, {u'high': 20, u'type': u'A', u'low': -1}
2017.02.08 11:57:17.850, subject.loaded, A
2017.02.08 11:57:17.850, subject.play, A
2017.02.08 11:57:17.853, system.simulus, 51
2017.02.08 11:57:17.853, system.simulus, 50
2017.02.08 11:57:21.778, subject.play, B
2017.02.08 11:57:21.781, system.simulus, 51
2017.02.08 11:57:23.575, subject.play, A
2017.02.08 11:57:23.578, system.simulus, 51
2017.02.08 11:57:23.578, system.simulus, 50
2017.02.08 11:58:07.473, subject.next, {u'high': 30, u'type': u'A', u'low': -1}
2017.02.08 11:58:07.986, subject.loaded, A
2017.02.08 11:58:07.987, subject.play, A
2017.02.08 11:58:07.989, system.simulus, 53
2017.02.08 11:58:07.990, system.simulus, 52
2017.02.08 11:58:12.614, subject.play, B
2017.02.08 11:58:12.616, system.simulus, 53
2017.02.08 11:58:16.774, subject.play, A
2017.02.08 11:58:16.776, system.simulus, 53
2017.02.08 11:58:16.777, system.simulus, 52
2017.02.08 11:58:27.363, subject.play, B
2017.02.08 11:58:27.366, system.simulus, 53
2017.02.08 11:58:28.548, subject.play, A
2017.02.08 11:58:28.550, system.simulus, 53
2017.02.08 11:58:28.551, system.simulus, 52
2017.02.08 11:58:52.373, subject.next, {u'high': 30, u'type': u'A', u'low': -1}
2017.02.08 11:58:52.828, subject.loaded, A
2017.02.08 11:58:52.828, subject.play, A
2017.02.08 11:58:52.831, system.simulus, 45
2017.02.08 11:58:52.831, system.simulus, 44
2017.02.08 11:58:58.753, subject.play, B
2017.02.08 11:58:58.756, system.simulus, 45
2017.02.08 11:59:00.479, subject.play, A
2017.02.08 11:59:00.481, system.simulus, 45
2017.02.08 11:59:00.481, system.simulus, 44
2017.02.08 11:59:08.966, subject.next, {u'high': 20, u'type': u'A', u'low': -1}
2017.02.08 11:59:09.406, subject.loaded, A
2017.02.08 11:59:09.407, subject.play, A
2017.02.08 11:59:09.409, system.simulus, 27
2017.02.08 11:59:09.410, system.simulus, 26
2017.02.08 11:59:20.279, subject.play, B
2017.02.08 11:59:20.281, system.simulus, 27
2017.02.08 11:59:22.628, subject.play, A
2017.02.08 11:59:22.631, system.simulus, 27
2017.02.08 11:59:22.631, system.simulus, 26
2017.02.08 11:59:48.939, subject.next, {u'high': 20, u'type': u'A', u'low': -1}
2017.02.08 11:59:49.374, subject.loaded, A
2017.02.08 11:59:49.374, subject.play, A
2017.02.08 11:59:49.377, system.simulus, 3
2017.02.08 11:59:49.378, system.simulus, 2
2017.02.08 11:59:55.183, subject.play, B
2017.02.08 11:59:55.186, system.simulus, 3
2017.02.08 11:59:58.159, subject.play, A
2017.02.08 11:59:58.162, system.simulus, 3
2017.02.08 11:59:58.162, system.simulus, 2
2017.02.08 12:00:06.272, subject.play, B
2017.02.08 12:00:06.275, system.simulus, 3
2017.02.08 12:00:13.176, subject.play, A
2017.02.08 12:00:13.178, system.simulus, 3
2017.02.08 12:00:13.179, system.simulus, 2
2017.02.08 12:00:16.663, subject.play, B
2017.02.08 12:00:16.666, system.simulus, 3
2017.02.08 12:00:23.331, subject.play, A
2017.02.08 12:00:23.333, system.simulus, 3
2017.02.08 12:00:23.334, system.simulus, 2
2017.02.08 12:00:37.685, subject.next, {u'high': 30, u'type': u'A', u'low': -1}
2017.02.08 12:00:38.182, subject.loaded, A
2017.02.08 12:00:38.182, subject.play, A
2017.02.08 12:00:38.185, system.simulus, 53
2017.02.08 12:00:38.186, system.simulus, 52
2017.02.08 12:00:41.604, subject.play, B
2017.02.08 12:00:41.606, system.simulus, 53
2017.02.08 12:00:44.146, subject.play, A
2017.02.08 12:00:44.148, system.simulus, 53
2017.02.08 12:00:44.149, system.simulus, 52
2017.02.08 12:00:53.309, subject.next, {u'high': 0, u'type': u'A', u'low': -1}
2017.02.08 12:00:53.752, subject.loaded, A
2017.02.08 12:00:53.752, subject.play, A
2017.02.08 12:00:53.754, system.simulus, 47
2017.02.08 12:00:53.755, system.simulus, 46
2017.02.08 12:01:02.550, subject.play, B
2017.02.08 12:01:02.552, system.simulus, 47
2017.02.08 12:01:05.595, subject.play, A
2017.02.08 12:01:05.597, system.simulus, 47
2017.02.08 12:01:05.597, system.simulus, 46
2017.02.08 12:01:27.633, subject.play, B
2017.02.08 12:01:27.636, system.simulus, 47
2017.02.08 12:01:29.000, subject.play, A
2017.02.08 12:01:29.002, system.simulus, 47
2017.02.08 12:01:29.003, system.simulus, 46
2017.02.08 12:01:33.409, subject.next, {u'high': 20, u'type': u'A', u'low': -1}
2017.02.08 12:01:33.419, subject.pause, None
2017.02.08 12:01:35.527, subject.continue, None
2017.02.08 12:01:35.582, system.stimuliset, [8, 14, 10, 26, 19, 7, 12, 3, 5, 9, 27, 17, 6, 24, 4, 15, 22, 20, 21, 28, 30, 1, 29, 0, 16, 18, 11, 25, 23, 2, 13]
2017.02.08 12:01:35.910, subject.loaded, A
2017.02.08 12:01:35.911, subject.play, A
2017.02.08 12:01:35.913, system.simulus, 17
2017.02.08 12:01:35.914, system.simulus, 16
2017.02.08 12:01:39.296, subject.play, A
2017.02.08 12:01:39.298, system.simulus, 17
2017.02.08 12:01:39.298, system.simulus, 16
2017.02.08 12:01:41.463, subject.play, B
2017.02.08 12:01:41.466, system.simulus, 17
2017.02.08 12:01:43.629, subject.play, A
2017.02.08 12:01:43.631, system.simulus, 17
2017.02.08 12:01:43.632, system.simulus, 16
2017.02.08 12:02:19.319, subject.next, {u'high': 20, u'type': u'A', u'low': -1}
2017.02.08 12:02:19.732, subject.loaded, A
2017.02.08 12:02:19.732, subject.play, A
2017.02.08 12:02:19.735, system.simulus, 29
2017.02.08 12:02:19.735, system.simulus, 28
2017.02.08 12:02:32.990, subject.play, B
2017.02.08 12:02:32.992, system.simulus, 29
2017.02.08 12:02:36.292, subject.play, A
2017.02.08 12:02:36.295, system.simulus, 29
2017.02.08 12:02:36.295, system.simulus, 28
2017.02.08 12:02:52.385, subject.next, {u'high': 20, u'type': u'A', u'low': -1}
2017.02.08 12:02:52.839, subject.loaded, A
2017.02.08 12:02:52.840, subject.play, A
2017.02.08 12:02:52.842, system.simulus, 21
2017.02.08 12:02:52.843, system.simulus, 20
2017.02.08 12:02:54.983, subject.play, B
2017.02.08 12:02:54.986, system.simulus, 21
2017.02.08 12:02:56.909, subject.play, A
2017.02.08 12:02:56.912, system.simulus, 21
2017.02.08 12:02:56.912, system.simulus, 20
2017.02.08 12:03:06.602, subject.next, {u'high': 50, u'type': u'A', u'low': -1}
2017.02.08 12:03:07.077, subject.loaded, A
2017.02.08 12:03:07.077, subject.play, A
2017.02.08 12:03:07.080, system.simulus, 53
2017.02.08 12:03:07.081, system.simulus, 52
2017.02.08 12:03:11.460, subject.play, B
2017.02.08 12:03:11.463, system.simulus, 53
2017.02.08 12:03:13.212, subject.play, A
2017.02.08 12:03:13.214, system.simulus, 53
2017.02.08 12:03:13.215, system.simulus, 52
2017.02.08 12:03:17.141, subject.next, {u'high': 0, u'type': u'A', u'low': -1}
2017.02.08 12:03:17.585, subject.loaded, A
2017.02.08 12:03:17.585, subject.play, A
2017.02.08 12:03:17.588, system.simulus, 39
2017.02.08 12:03:17.588, system.simulus, 38
2017.02.08 12:03:26.644, subject.play, B
2017.02.08 12:03:26.647, system.simulus, 39
2017.02.08 12:03:28.672, subject.play, A
2017.02.08 12:03:28.675, system.simulus, 39
2017.02.08 12:03:28.675, system.simulus, 38
2017.02.08 12:04:00.478, subject.next, {u'high': 20, u'type': u'A', u'low': -1}
2017.02.08 12:04:00.895, subject.loaded, A
2017.02.08 12:04:00.895, subject.play, A
2017.02.08 12:04:00.897, system.simulus, 15
2017.02.08 12:04:00.898, system.simulus, 14
2017.02.08 12:04:03.823, subject.play, B
2017.02.08 12:04:03.826, system.simulus, 15
2017.02.08 12:04:05.670, subject.play, A
2017.02.08 12:04:05.673, system.simulus, 15
2017.02.08 12:04:05.673, system.simulus, 14
2017.02.08 12:04:18.565, subject.next, {u'high': 30, u'type': u'A', u'low': -1}
2017.02.08 12:04:19.015, subject.loaded, A
2017.02.08 12:04:19.016, subject.play, A
2017.02.08 12:04:19.018, system.simulus, 25
2017.02.08 12:04:19.018, system.simulus, 24
2017.02.08 12:04:21.832, subject.play, B
2017.02.08 12:04:21.834, system.simulus, 25
2017.02.08 12:04:23.819, subject.play, A
2017.02.08 12:04:23.822, system.simulus, 25
2017.02.08 12:04:23.822, system.simulus, 24
2017.02.08 12:04:34.247, subject.next, {u'high': 10, u'type': u'A', u'low': -1}
2017.02.08 12:04:34.691, subject.loaded, A
2017.02.08 12:04:34.691, subject.play, A
2017.02.08 12:04:34.693, system.simulus, 7
2017.02.08 12:04:34.694, system.simulus, 6
2017.02.08 12:04:44.765, subject.play, B
2017.02.08 12:04:44.767, system.simulus, 7
2017.02.08 12:04:46.579, subject.play, A
2017.02.08 12:04:46.581, system.simulus, 7
2017.02.08 12:04:46.582, system.simulus, 6
2017.02.08 12:04:51.149, subject.next, {u'high': 20, u'type': u'A', u'low': -1}
2017.02.08 12:04:51.595, subject.loaded, A
2017.02.08 12:04:51.596, subject.play, A
2017.02.08 12:04:51.598, system.simulus, 11
2017.02.08 12:04:51.599, system.simulus, 10
2017.02.08 12:04:54.626, subject.play, B
2017.02.08 12:04:54.628, system.simulus, 11
2017.02.08 12:04:56.354, subject.play, A
2017.02.08 12:04:56.356, system.simulus, 11
2017.02.08 12:04:56.357, system.simulus, 10
2017.02.08 12:05:21.116, subject.next, {u'high': 20, u'type': u'A', u'low': -1}
2017.02.08 12:05:21.676, subject.loaded, A
2017.02.08 12:05:21.676, subject.play, A
2017.02.08 12:05:21.678, system.simulus, 19
2017.02.08 12:05:21.679, system.simulus, 18
2017.02.08 12:05:23.916, subject.play, B
2017.02.08 12:05:23.919, system.simulus, 19
2017.02.08 12:05:25.690, subject.play, A
2017.02.08 12:05:25.692, system.simulus, 19
2017.02.08 12:05:25.692, system.simulus, 18
2017.02.08 12:05:39.661, subject.next, {u'high': 20, u'type': u'A', u'low': -1}
2017.02.08 12:05:40.178, subject.loaded, A
2017.02.08 12:05:40.178, subject.play, A
2017.02.08 12:05:40.181, system.simulus, 53
2017.02.08 12:05:40.181, system.simulus, 52
2017.02.08 12:05:43.642, subject.play, B
2017.02.08 12:05:43.645, system.simulus, 53
2017.02.08 12:05:45.611, subject.play, A
2017.02.08 12:05:45.614, system.simulus, 53
2017.02.08 12:05:45.614, system.simulus, 52
2017.02.08 12:06:22.875, subject.next, {u'high': 10, u'type': u'A', u'low': -1}
2017.02.08 12:06:23.384, subject.loaded, A
2017.02.08 12:06:23.385, subject.play, A
2017.02.08 12:06:23.388, system.simulus, 35
2017.02.08 12:06:23.388, system.simulus, 34
2017.02.08 12:06:27.016, subject.play, B
2017.02.08 12:06:27.019, system.simulus, 35
2017.02.08 12:06:28.679, subject.play, A
2017.02.08 12:06:28.682, system.simulus, 35
2017.02.08 12:06:28.682, system.simulus, 34
2017.02.08 12:06:42.229, subject.next, {u'high': 40, u'type': u'A', u'low': -1}
2017.02.08 12:06:42.680, subject.loaded, A
2017.02.08 12:06:42.680, subject.play, A
2017.02.08 12:06:42.683, system.simulus, 13
2017.02.08 12:06:42.683, system.simulus, 12
2017.02.08 12:06:45.328, subject.play, B
2017.02.08 12:06:45.331, system.simulus, 13
2017.02.08 12:06:47.181, subject.play, A
2017.02.08 12:06:47.184, system.simulus, 13
2017.02.08 12:06:47.184, system.simulus, 12
2017.02.08 12:07:07.695, subject.next, {u'high': 20, u'type': u'A', u'low': -1}
2017.02.08 12:07:08.154, subject.loaded, A
2017.02.08 12:07:08.155, subject.play, A
2017.02.08 12:07:08.157, system.simulus, 49
2017.02.08 12:07:08.157, system.simulus, 48
2017.02.08 12:07:11.078, subject.play, B
2017.02.08 12:07:11.080, system.simulus, 49
2017.02.08 12:07:13.182, subject.play, A
2017.02.08 12:07:13.185, system.simulus, 49
2017.02.08 12:07:13.185, system.simulus, 48
2017.02.08 12:07:33.834, subject.next, {u'high': 30, u'type': u'A', u'low': -1}
2017.02.08 12:07:34.258, subject.loaded, A
2017.02.08 12:07:34.258, subject.play, A
2017.02.08 12:07:34.261, system.simulus, 9
2017.02.08 12:07:34.261, system.simulus, 8
2017.02.08 12:07:38.753, subject.play, B
2017.02.08 12:07:38.756, system.simulus, 9
2017.02.08 12:07:41.240, subject.play, A
2017.02.08 12:07:41.242, system.simulus, 9
2017.02.08 12:07:41.243, system.simulus, 8
2017.02.08 12:07:46.429, subject.next, {u'high': 30, u'type': u'A', u'low': -1}
2017.02.08 12:07:46.881, subject.loaded, A
2017.02.08 12:07:46.881, subject.play, A
2017.02.08 12:07:46.884, system.simulus, 31
2017.02.08 12:07:46.885, system.simulus, 30
2017.02.08 12:07:53.614, subject.play, B
2017.02.08 12:07:53.617, system.simulus, 31
2017.02.08 12:07:55.556, subject.play, A
2017.02.08 12:07:55.559, system.simulus, 31
2017.02.08 12:07:55.559, system.simulus, 30
2017.02.08 12:07:58.977, subject.next, {u'high': 50, u'type': u'A', u'low': -1}
2017.02.08 12:07:59.423, subject.loaded, A
2017.02.08 12:07:59.423, subject.play, A
2017.02.08 12:07:59.426, system.simulus, 45
2017.02.08 12:07:59.426, system.simulus, 44
2017.02.08 12:08:01.261, subject.play, B
2017.02.08 12:08:01.264, system.simulus, 45
2017.02.08 12:08:03.723, subject.play, A
2017.02.08 12:08:03.726, system.simulus, 45
2017.02.08 12:08:03.726, system.simulus, 44
2017.02.08 12:08:15.076, subject.play, B
2017.02.08 12:08:15.079, system.simulus, 45
2017.02.08 12:08:16.631, subject.play, A
2017.02.08 12:08:16.634, system.simulus, 45
2017.02.08 12:08:16.634, system.simulus, 44
2017.02.08 12:08:21.430, subject.next, {u'high': 20, u'type': u'A', u'low': -1}
2017.02.08 12:08:21.876, subject.loaded, A
2017.02.08 12:08:21.877, subject.play, A
2017.02.08 12:08:21.879, system.simulus, 41
2017.02.08 12:08:21.879, system.simulus, 40
2017.02.08 12:08:33.323, subject.play, B
2017.02.08 12:08:33.325, system.simulus, 41
2017.02.08 12:08:35.902, subject.play, A
2017.02.08 12:08:35.905, system.simulus, 41
2017.02.08 12:08:35.905, system.simulus, 40
2017.02.08 12:08:43.180, subject.next, {u'high': 20, u'type': u'A', u'low': -1}
2017.02.08 12:08:43.633, subject.loaded, A
2017.02.08 12:08:43.633, subject.play, A
2017.02.08 12:08:43.635, system.simulus, 43
2017.02.08 12:08:43.636, system.simulus, 42
2017.02.08 12:08:56.307, subject.play, B
2017.02.08 12:08:56.309, system.simulus, 43
2017.02.08 12:08:59.156, subject.play, A
2017.02.08 12:08:59.158, system.simulus, 43
2017.02.08 12:08:59.159, system.simulus, 42
2017.02.08 12:09:09.844, subject.next, {u'high': 60, u'type': u'A', u'low': -1}
2017.02.08 12:09:10.266, subject.loaded, A
2017.02.08 12:09:10.266, subject.play, A
2017.02.08 12:09:10.269, system.simulus, 53
2017.02.08 12:09:10.270, system.simulus, 52
2017.02.08 12:09:18.888, subject.play, B
2017.02.08 12:09:18.891, system.simulus, 53
2017.02.08 12:09:20.734, subject.play, A
2017.02.08 12:09:20.737, system.simulus, 53
2017.02.08 12:09:20.737, system.simulus, 52
2017.02.08 12:09:25.955, subject.next, {u'high': 10, u'type': u'A', u'low': -1}
2017.02.08 12:09:26.442, subject.loaded, A
2017.02.08 12:09:26.442, subject.play, A
2017.02.08 12:09:26.445, system.simulus, 53
2017.02.08 12:09:26.445, system.simulus, 52
2017.02.08 12:09:28.575, subject.play, B
2017.02.08 12:09:28.578, system.simulus, 53
2017.02.08 12:09:30.235, subject.play, A
2017.02.08 12:09:30.237, system.simulus, 53
2017.02.08 12:09:30.238, system.simulus, 52
2017.02.08 12:09:40.839, subject.next, {u'high': 30, u'type': u'A', u'low': -1}
2017.02.08 12:09:41.349, subject.loaded, A
2017.02.08 12:09:41.349, subject.play, A
2017.02.08 12:09:41.352, system.simulus, 3
2017.02.08 12:09:41.352, system.simulus, 2
2017.02.08 12:09:50.836, subject.play, B
2017.02.08 12:09:50.839, system.simulus, 3
2017.02.08 12:09:53.288, subject.play, A
2017.02.08 12:09:53.290, system.simulus, 3
2017.02.08 12:09:53.291, system.simulus, 2
2017.02.08 12:09:54.554, subject.play, B
2017.02.08 12:09:54.557, system.simulus, 3
2017.02.08 12:09:56.106, subject.play, A
2017.02.08 12:09:56.108, system.simulus, 3
2017.02.08 12:09:56.108, system.simulus, 2
2017.02.08 12:10:11.206, subject.play, B
2017.02.08 12:10:11.209, system.simulus, 3
2017.02.08 12:10:13.722, subject.play, A
2017.02.08 12:10:13.724, system.simulus, 3
2017.02.08 12:10:13.725, system.simulus, 2
2017.02.08 12:10:28.887, subject.play, B
2017.02.08 12:10:28.890, system.simulus, 3
2017.02.08 12:10:30.952, subject.play, A
2017.02.08 12:10:30.955, system.simulus, 3
2017.02.08 12:10:30.956, system.simulus, 2
2017.02.08 12:10:37.949, subject.next, {u'high': 40, u'type': u'A', u'low': -1}
2017.02.08 12:10:38.414, subject.loaded, A
2017.02.08 12:10:38.414, subject.play, A
2017.02.08 12:10:38.417, system.simulus, 53
2017.02.08 12:10:38.417, system.simulus, 52
2017.02.08 12:10:43.495, subject.play, B
2017.02.08 12:10:43.497, system.simulus, 53
2017.02.08 12:10:45.828, subject.play, A
2017.02.08 12:10:45.830, system.simulus, 53
2017.02.08 12:10:45.831, system.simulus, 52
2017.02.08 12:10:59.931, subject.play, B
2017.02.08 12:10:59.934, system.simulus, 53
2017.02.08 12:11:01.028, subject.play, A
2017.02.08 12:11:01.030, system.simulus, 53
2017.02.08 12:11:01.031, system.simulus, 52
2017.02.08 12:11:05.131, subject.next, {u'high': 10, u'type': u'A', u'low': -1}
2017.02.08 12:11:05.605, subject.loaded, A
2017.02.08 12:11:05.605, subject.play, A
2017.02.08 12:11:05.608, system.simulus, 1
2017.02.08 12:11:05.608, system.simulus, 0
2017.02.08 12:11:10.020, subject.play, B
2017.02.08 12:11:10.023, system.simulus, 1
2017.02.08 12:11:11.704, subject.play, A
2017.02.08 12:11:11.706, system.simulus, 1
2017.02.08 12:11:11.707, system.simulus, 0
2017.02.08 12:11:23.648, subject.next, {u'high': 20, u'type': u'A', u'low': -1}
2017.02.08 12:11:24.101, subject.loaded, A
2017.02.08 12:11:24.101, subject.play, A
2017.02.08 12:11:24.104, system.simulus, 33
2017.02.08 12:11:24.104, system.simulus, 32
2017.02.08 12:11:28.322, subject.play, B
2017.02.08 12:11:28.325, system.simulus, 33
2017.02.08 12:11:30.387, subject.play, A
2017.02.08 12:11:30.390, system.simulus, 33
2017.02.08 12:11:30.390, system.simulus, 32
2017.02.08 12:11:37.199, subject.play, B
2017.02.08 12:11:37.202, system.simulus, 33
2017.02.08 12:11:39.636, subject.play, A
2017.02.08 12:11:39.638, system.simulus, 33
2017.02.08 12:11:39.639, system.simulus, 32
2017.02.08 12:11:51.138, subject.next, {u'high': 10, u'type': u'A', u'low': -1}
2017.02.08 12:11:51.543, subject.loaded, A
2017.02.08 12:11:51.543, subject.play, A
2017.02.08 12:11:51.546, system.simulus, 37
2017.02.08 12:11:51.547, system.simulus, 36
2017.02.08 12:11:53.676, subject.play, B
2017.02.08 12:11:53.679, system.simulus, 37
2017.02.08 12:11:55.457, subject.play, A
2017.02.08 12:11:55.459, system.simulus, 37
2017.02.08 12:11:55.460, system.simulus, 36
2017.02.08 12:12:05.652, subject.next, {u'high': 20, u'type': u'A', u'low': -1}
2017.02.08 12:12:06.091, subject.loaded, A
2017.02.08 12:12:06.092, subject.play, A
2017.02.08 12:12:06.094, system.simulus, 23
2017.02.08 12:12:06.095, system.simulus, 22
2017.02.08 12:12:10.183, subject.play, B
2017.02.08 12:12:10.186, system.simulus, 23
2017.02.08 12:12:12.056, subject.play, A
2017.02.08 12:12:12.059, system.simulus, 23
2017.02.08 12:12:12.059, system.simulus, 22
2017.02.08 12:12:15.500, subject.play, B
2017.02.08 12:12:15.502, system.simulus, 23
2017.02.08 12:12:16.409, subject.play, A
2017.02.08 12:12:16.411, system.simulus, 23
2017.02.08 12:12:16.412, system.simulus, 22
2017.02.08 12:12:35.062, subject.next, {u'high': 10, u'type': u'A', u'low': -1}
2017.02.08 12:12:35.511, subject.loaded, A
2017.02.08 12:12:35.512, subject.play, A
2017.02.08 12:12:35.514, system.simulus, 51
2017.02.08 12:12:35.515, system.simulus, 50
2017.02.08 12:12:37.638, subject.play, B
2017.02.08 12:12:37.641, system.simulus, 51
2017.02.08 12:12:40.173, subject.play, A
2017.02.08 12:12:40.175, system.simulus, 51
2017.02.08 12:12:40.176, system.simulus, 50
2017.02.08 12:12:59.914, subject.next, {u'high': 20, u'type': u'A', u'low': -1}
2017.02.08 12:13:00.409, subject.loaded, A
2017.02.08 12:13:00.410, subject.play, A
2017.02.08 12:13:00.412, system.simulus, 47
2017.02.08 12:13:00.413, system.simulus, 46
2017.02.08 12:13:10.186, subject.play, B
2017.02.08 12:13:10.189, system.simulus, 47
2017.02.08 12:13:12.405, subject.play, A
2017.02.08 12:13:12.408, system.simulus, 47
2017.02.08 12:13:12.408, system.simulus, 46
2017.02.08 12:13:30.616, subject.next, {u'high': 10, u'type': u'A', u'low': -1}
2017.02.08 12:13:31.055, subject.loaded, A
2017.02.08 12:13:31.055, subject.play, A
2017.02.08 12:13:31.057, system.simulus, 5
2017.02.08 12:13:31.058, system.simulus, 4
2017.02.08 12:13:35.795, subject.play, B
2017.02.08 12:13:35.798, system.simulus, 5
2017.02.08 12:13:38.979, subject.play, A
2017.02.08 12:13:38.982, system.simulus, 5
2017.02.08 12:13:38.982, system.simulus, 4
2017.02.08 12:13:49.089, subject.play, B
2017.02.08 12:13:49.091, system.simulus, 5
2017.02.08 12:13:50.152, subject.play, A
2017.02.08 12:13:50.154, system.simulus, 5
2017.02.08 12:13:50.155, system.simulus, 4
2017.02.08 12:14:01.523, subject.next, {u'high': 0, u'type': u'A', u'low': -1}
2017.02.08 12:14:01.952, subject.loaded, A
2017.02.08 12:14:01.953, subject.play, A
2017.02.08 12:14:01.955, system.simulus, 27
2017.02.08 12:14:01.955, system.simulus, 26
2017.02.08 12:14:04.485, subject.play, B
2017.02.08 12:14:04.487, system.simulus, 27
2017.02.08 12:14:07.777, subject.play, A
2017.02.08 12:14:07.780, system.simulus, 27
2017.02.08 12:14:07.780, system.simulus, 26
2017.02.08 12:14:42.176, subject.next, {u'high': 10, u'type': u'A', u'low': -1}
2017.02.08 12:14:42.192, subject.end, None
2017.02.08 12:16:50.315, operator.end, None
