2016.12.06 13:49:33.842, system.log.file, /Users/int01/intervall/log/int01_subj999_34.log
2016.12.06 13:49:33.942, system.begin, None
2016.12.06 13:49:33.943, system.version, int01_1_0
2016.12.06 13:49:33.943, system.operator, MrTester
2016.12.06 13:49:33.943, system.subject, 999
2016.12.06 13:49:33.943, system.session.begin, B
2016.12.06 13:49:51.449, subject.begin, B
2016.12.06 13:49:51.501, system.stimuliset, [29, 18, 12, 20, 16, 19, 6, 17, 2, 15, 14, 24, 30, 26, 13, 9, 28, 8, 21, 0, 27, 4, 3, 25, 5, 7, 11, 23, 1, 22, 10]
2016.12.06 13:49:52.024, subject.loaded, A
2016.12.06 13:49:52.024, subject.play, A
2016.12.06 13:49:52.027, system.simulus, 53
2016.12.06 13:49:52.028, system.simulus, 52
2016.12.06 13:50:05.402, subject.play, A
2016.12.06 13:50:05.405, system.simulus, 53
2016.12.06 13:50:05.406, system.simulus, 52
2016.12.06 13:50:21.160, subject.play, B
2016.12.06 13:50:21.162, system.simulus, 53
2016.12.06 13:50:31.150, subject.next, {u'high': 150, u'type': u'A', u'low': 100}
2016.12.06 13:50:31.674, subject.loaded, A
2016.12.06 13:50:31.675, subject.play, A
2016.12.06 13:50:31.677, system.simulus, 37
2016.12.06 13:50:31.678, system.simulus, 36
2016.12.06 13:50:34.813, subject.play, B
2016.12.06 13:50:34.815, system.simulus, 37
2016.12.06 13:50:36.074, subject.play, A
2016.12.06 13:50:36.076, system.simulus, 37
2016.12.06 13:50:36.077, system.simulus, 36
2016.12.06 13:50:37.354, subject.play, B
2016.12.06 13:50:37.357, system.simulus, 37
2016.12.06 13:50:45.157, subject.next, {u'high': 200, u'type': u'A', u'low': 100}
2016.12.06 13:50:45.621, subject.loaded, A
2016.12.06 13:50:45.621, subject.play, A
2016.12.06 13:50:45.624, system.simulus, 25
2016.12.06 13:50:45.624, system.simulus, 24
2016.12.06 13:50:48.583, subject.play, B
2016.12.06 13:50:48.585, system.simulus, 25
2016.12.06 13:50:50.907, subject.play, A
2016.12.06 13:50:50.909, system.simulus, 25
2016.12.06 13:50:50.910, system.simulus, 24
2016.12.06 13:50:52.232, subject.play, B
2016.12.06 13:50:52.235, system.simulus, 25
2016.12.06 13:50:56.782, subject.next, {u'high': 400, u'type': u'A', u'low': 200}
2016.12.06 13:50:57.269, subject.loaded, A
2016.12.06 13:50:57.269, subject.play, A
2016.12.06 13:50:57.272, system.simulus, 41
2016.12.06 13:50:57.272, system.simulus, 40
2016.12.06 13:51:00.795, subject.play, B
2016.12.06 13:51:00.797, system.simulus, 41
2016.12.06 13:51:02.979, subject.play, A
2016.12.06 13:51:02.981, system.simulus, 41
2016.12.06 13:51:02.982, system.simulus, 40
2016.12.06 13:51:04.620, subject.play, B
2016.12.06 13:51:04.623, system.simulus, 41
2016.12.06 13:51:11.994, subject.next, {u'high': 100, u'type': u'A', u'low': 25}
2016.12.06 13:51:12.445, subject.loaded, A
2016.12.06 13:51:12.445, subject.play, A
2016.12.06 13:51:12.448, system.simulus, 33
2016.12.06 13:51:12.448, system.simulus, 32
2016.12.06 13:51:15.635, subject.play, B
2016.12.06 13:51:15.638, system.simulus, 33
2016.12.06 13:51:18.814, subject.play, A
2016.12.06 13:51:18.817, system.simulus, 33
2016.12.06 13:51:18.818, system.simulus, 32
2016.12.06 13:51:20.726, subject.play, B
2016.12.06 13:51:20.729, system.simulus, 33
2016.12.06 13:51:30.067, subject.next, {u'high': 200, u'type': u'A', u'low': 150}
2016.12.06 13:51:30.517, subject.loaded, A
2016.12.06 13:51:30.517, subject.play, A
2016.12.06 13:51:30.520, system.simulus, 39
2016.12.06 13:51:30.520, system.simulus, 38
2016.12.06 13:51:33.628, subject.play, B
2016.12.06 13:51:33.631, system.simulus, 39
2016.12.06 13:51:36.755, subject.play, A
2016.12.06 13:51:36.757, system.simulus, 39
2016.12.06 13:51:36.758, system.simulus, 38
2016.12.06 13:51:38.943, subject.play, B
2016.12.06 13:51:38.945, system.simulus, 39
2016.12.06 13:51:42.542, subject.play, A
2016.12.06 13:51:42.545, system.simulus, 39
2016.12.06 13:51:42.545, system.simulus, 38
2016.12.06 13:51:43.491, subject.play, B
2016.12.06 13:51:43.494, system.simulus, 39
2016.12.06 13:51:50.052, subject.next, {u'high': 250, u'type': u'A', u'low': 100}
2016.12.06 13:51:50.544, subject.loaded, A
2016.12.06 13:51:50.544, subject.play, A
2016.12.06 13:51:50.547, system.simulus, 13
2016.12.06 13:51:50.547, system.simulus, 12
2016.12.06 13:51:54.176, subject.play, B
2016.12.06 13:51:54.179, system.simulus, 13
2016.12.06 13:51:56.703, subject.play, A
2016.12.06 13:51:56.706, system.simulus, 13
2016.12.06 13:51:56.706, system.simulus, 12
2016.12.06 13:51:57.755, subject.play, B
2016.12.06 13:51:57.758, system.simulus, 13
2016.12.06 13:52:04.182, subject.next, {u'high': 250, u'type': u'A', u'low': 200}
2016.12.06 13:52:04.626, subject.loaded, A
2016.12.06 13:52:04.627, subject.play, A
2016.12.06 13:52:04.629, system.simulus, 35
2016.12.06 13:52:04.630, system.simulus, 34
2016.12.06 13:52:07.056, subject.play, B
2016.12.06 13:52:07.058, system.simulus, 35
2016.12.06 13:52:09.167, subject.play, A
2016.12.06 13:52:09.169, system.simulus, 35
2016.12.06 13:52:09.170, system.simulus, 34
2016.12.06 13:52:10.516, subject.play, B
2016.12.06 13:52:10.519, system.simulus, 35
2016.12.06 13:52:17.031, subject.next, {u'high': 150, u'type': u'A', u'low': 50}
2016.12.06 13:52:17.591, subject.loaded, A
2016.12.06 13:52:17.591, subject.play, A
2016.12.06 13:52:17.594, system.simulus, 5
2016.12.06 13:52:17.594, system.simulus, 4
2016.12.06 13:52:21.112, subject.play, B
2016.12.06 13:52:21.116, system.simulus, 5
2016.12.06 13:52:24.956, subject.play, A
2016.12.06 13:52:24.959, system.simulus, 5
2016.12.06 13:52:24.960, system.simulus, 4
2016.12.06 13:52:26.969, subject.play, B
2016.12.06 13:52:26.972, system.simulus, 5
2016.12.06 13:52:34.815, subject.next, {u'high': 250, u'type': u'A', u'low': 100}
2016.12.06 13:52:35.313, subject.loaded, A
2016.12.06 13:52:35.313, subject.play, A
2016.12.06 13:52:35.316, system.simulus, 31
2016.12.06 13:52:35.316, system.simulus, 30
2016.12.06 13:52:37.730, subject.play, B
2016.12.06 13:52:37.732, system.simulus, 31
2016.12.06 13:52:40.745, subject.play, A
2016.12.06 13:52:40.747, system.simulus, 31
2016.12.06 13:52:40.748, system.simulus, 30
2016.12.06 13:52:42.729, subject.play, B
2016.12.06 13:52:42.732, system.simulus, 31
2016.12.06 13:52:49.384, subject.next, {u'high': 350, u'type': u'A', u'low': 100}
2016.12.06 13:52:49.849, subject.loaded, A
2016.12.06 13:52:49.849, subject.play, A
2016.12.06 13:52:49.852, system.simulus, 29
2016.12.06 13:52:49.852, system.simulus, 28
2016.12.06 13:52:52.777, subject.play, A
2016.12.06 13:52:52.780, system.simulus, 29
2016.12.06 13:52:52.780, system.simulus, 28
2016.12.06 13:52:58.673, subject.play, B
2016.12.06 13:52:58.675, system.simulus, 29
2016.12.06 13:53:01.325, subject.play, A
2016.12.06 13:53:01.328, system.simulus, 29
2016.12.06 13:53:01.328, system.simulus, 28
2016.12.06 13:53:02.516, subject.play, B
2016.12.06 13:53:02.519, system.simulus, 29
2016.12.06 13:53:15.041, subject.next, {u'high': 350, u'type': u'A', u'low': 0}
2016.12.06 13:53:15.497, subject.loaded, A
2016.12.06 13:53:15.498, subject.play, A
2016.12.06 13:53:15.500, system.simulus, 49
2016.12.06 13:53:15.500, system.simulus, 48
2016.12.06 13:53:17.864, subject.play, B
2016.12.06 13:53:17.866, system.simulus, 49
2016.12.06 13:53:20.193, subject.play, A
2016.12.06 13:53:20.196, system.simulus, 49
2016.12.06 13:53:20.196, system.simulus, 48
2016.12.06 13:53:22.243, subject.play, B
2016.12.06 13:53:22.245, system.simulus, 49
2016.12.06 13:53:24.129, subject.play, B
2016.12.06 13:53:24.131, system.simulus, 49
2016.12.06 13:53:30.270, subject.next, {u'high': 0, u'type': u'A', u'low': 0}
2016.12.06 13:53:30.700, subject.loaded, A
2016.12.06 13:53:30.700, subject.play, A
2016.12.06 13:53:30.702, system.simulus, 53
2016.12.06 13:53:30.703, system.simulus, 52
2016.12.06 13:53:36.469, subject.play, B
2016.12.06 13:53:36.472, system.simulus, 53
2016.12.06 13:53:38.547, subject.play, A
2016.12.06 13:53:38.549, system.simulus, 53
2016.12.06 13:53:38.550, system.simulus, 52
2016.12.06 13:53:45.570, subject.next, {u'high': 350, u'type': u'A', u'low': 0}
2016.12.06 13:53:46.132, subject.loaded, A
2016.12.06 13:53:46.132, subject.play, A
2016.12.06 13:53:46.135, system.simulus, 53
2016.12.06 13:53:46.136, system.simulus, 52
2016.12.06 13:53:48.981, subject.play, A
2016.12.06 13:53:48.983, system.simulus, 53
2016.12.06 13:53:48.984, system.simulus, 52
2016.12.06 13:53:49.976, subject.play, B
2016.12.06 13:53:49.978, system.simulus, 53
2016.12.06 13:53:59.667, subject.next, {u'high': 100, u'type': u'A', u'low': 0}
2016.12.06 13:54:00.086, subject.loaded, A
2016.12.06 13:54:00.086, subject.play, A
2016.12.06 13:54:00.088, system.simulus, 27
2016.12.06 13:54:00.089, system.simulus, 26
2016.12.06 13:54:04.055, subject.play, B
2016.12.06 13:54:04.057, system.simulus, 27
2016.12.06 13:54:06.427, subject.play, B
2016.12.06 13:54:06.430, system.simulus, 27
2016.12.06 13:54:08.483, subject.play, A
2016.12.06 13:54:08.486, system.simulus, 27
2016.12.06 13:54:08.486, system.simulus, 26
2016.12.06 13:54:09.763, subject.play, B
2016.12.06 13:54:09.766, system.simulus, 27
2016.12.06 13:54:16.236, subject.next, {u'high': 125, u'type': u'A', u'low': 0}
2016.12.06 13:54:16.651, subject.loaded, A
2016.12.06 13:54:16.651, subject.play, A
2016.12.06 13:54:16.654, system.simulus, 19
2016.12.06 13:54:16.654, system.simulus, 18
2016.12.06 13:54:19.332, subject.play, B
2016.12.06 13:54:19.334, system.simulus, 19
2016.12.06 13:54:21.480, subject.play, A
2016.12.06 13:54:21.482, system.simulus, 19
2016.12.06 13:54:21.482, system.simulus, 18
2016.12.06 13:54:23.002, subject.play, B
2016.12.06 13:54:23.004, system.simulus, 19
2016.12.06 13:54:30.055, subject.next, {u'high': 150, u'type': u'A', u'low': 0}
2016.12.06 13:54:30.488, subject.loaded, A
2016.12.06 13:54:30.488, subject.play, A
2016.12.06 13:54:30.491, system.simulus, 53
2016.12.06 13:54:30.492, system.simulus, 52
2016.12.06 13:54:33.517, subject.play, B
2016.12.06 13:54:33.520, system.simulus, 53
2016.12.06 13:54:37.092, subject.play, A
2016.12.06 13:54:37.094, system.simulus, 53
2016.12.06 13:54:37.095, system.simulus, 52
2016.12.06 13:54:38.321, subject.play, B
2016.12.06 13:54:38.324, system.simulus, 53
2016.12.06 13:54:45.404, subject.next, {u'high': 100, u'type': u'A', u'low': 0}
2016.12.06 13:54:45.846, subject.loaded, A
2016.12.06 13:54:45.847, subject.play, A
2016.12.06 13:54:45.849, system.simulus, 17
2016.12.06 13:54:45.849, system.simulus, 16
2016.12.06 13:54:48.397, subject.play, B
2016.12.06 13:54:48.399, system.simulus, 17
2016.12.06 13:55:00.936, subject.next, {u'high': 300, u'type': u'A', u'low': 0}
2016.12.06 13:55:01.406, subject.loaded, A
2016.12.06 13:55:01.407, subject.play, A
2016.12.06 13:55:01.409, system.simulus, 43
2016.12.06 13:55:01.409, system.simulus, 42
2016.12.06 13:55:05.350, subject.play, B
2016.12.06 13:55:05.352, system.simulus, 43
2016.12.06 13:55:11.480, subject.next, {u'high': 200, u'type': u'A', u'low': 0}
2016.12.06 13:55:12.029, subject.loaded, A
2016.12.06 13:55:12.030, subject.play, A
2016.12.06 13:55:12.032, system.simulus, 1
2016.12.06 13:55:12.033, system.simulus, 0
2016.12.06 13:55:14.990, subject.play, B
2016.12.06 13:55:14.992, system.simulus, 1
2016.12.06 13:55:17.171, subject.play, A
2016.12.06 13:55:17.174, system.simulus, 1
2016.12.06 13:55:17.174, system.simulus, 0
2016.12.06 13:55:18.514, subject.play, B
2016.12.06 13:55:18.517, system.simulus, 1
2016.12.06 13:55:23.265, subject.next, {u'high': 0, u'type': u'A', u'low': 0}
2016.12.06 13:55:23.699, subject.loaded, A
2016.12.06 13:55:23.700, subject.play, A
2016.12.06 13:55:23.702, system.simulus, 53
2016.12.06 13:55:23.703, system.simulus, 52
2016.12.06 13:55:28.160, subject.play, B
2016.12.06 13:55:28.162, system.simulus, 53
2016.12.06 13:55:34.912, subject.next, {u'high': 250, u'type': u'A', u'low': 0}
2016.12.06 13:55:35.376, subject.loaded, A
2016.12.06 13:55:35.377, subject.play, A
2016.12.06 13:55:35.379, system.simulus, 9
2016.12.06 13:55:35.380, system.simulus, 8
2016.12.06 13:55:37.736, subject.play, B
2016.12.06 13:55:37.738, system.simulus, 9
2016.12.06 13:55:39.807, subject.play, A
2016.12.06 13:55:39.810, system.simulus, 9
2016.12.06 13:55:39.811, system.simulus, 8
2016.12.06 13:55:40.953, subject.play, B
2016.12.06 13:55:40.955, system.simulus, 9
2016.12.06 13:55:47.062, subject.next, {u'high': 250, u'type': u'A', u'low': 0}
2016.12.06 13:55:47.526, subject.loaded, A
2016.12.06 13:55:47.526, subject.play, A
2016.12.06 13:55:47.529, system.simulus, 7
2016.12.06 13:55:47.530, system.simulus, 6
2016.12.06 13:55:54.690, subject.play, B
2016.12.06 13:55:54.692, system.simulus, 7
2016.12.06 13:56:01.389, subject.next, {u'high': 250, u'type': u'A', u'low': 0}
2016.12.06 13:56:01.886, subject.loaded, A
2016.12.06 13:56:01.887, subject.play, A
2016.12.06 13:56:01.889, system.simulus, 51
2016.12.06 13:56:01.889, system.simulus, 50
2016.12.06 13:56:18.213, subject.play, B
2016.12.06 13:56:18.215, system.simulus, 51
2016.12.06 13:56:20.853, subject.play, A
2016.12.06 13:56:20.856, system.simulus, 51
2016.12.06 13:56:20.856, system.simulus, 50
2016.12.06 13:56:22.353, subject.play, B
2016.12.06 13:56:22.356, system.simulus, 51
2016.12.06 13:56:27.944, subject.next, {u'high': 0, u'type': u'A', u'low': 0}
2016.12.06 13:56:28.420, subject.loaded, A
2016.12.06 13:56:28.420, subject.play, A
2016.12.06 13:56:28.422, system.simulus, 11
2016.12.06 13:56:28.423, system.simulus, 10
2016.12.06 13:56:31.660, subject.play, B
2016.12.06 13:56:31.662, system.simulus, 11
2016.12.06 13:56:35.590, subject.play, A
2016.12.06 13:56:35.593, system.simulus, 11
2016.12.06 13:56:35.593, system.simulus, 10
2016.12.06 13:56:37.471, subject.play, B
2016.12.06 13:56:37.474, system.simulus, 11
2016.12.06 13:56:50.624, subject.next, {u'high': 250, u'type': u'A', u'low': 0}
2016.12.06 13:56:51.129, subject.loaded, A
2016.12.06 13:56:51.129, subject.play, A
2016.12.06 13:56:51.132, system.simulus, 15
2016.12.06 13:56:51.132, system.simulus, 14
2016.12.06 13:56:53.899, subject.play, B
2016.12.06 13:56:53.901, system.simulus, 15
2016.12.06 13:57:07.015, subject.next, {u'high': 250, u'type': u'A', u'low': 0}
2016.12.06 13:57:07.477, subject.loaded, A
2016.12.06 13:57:07.477, subject.play, A
2016.12.06 13:57:07.479, system.simulus, 23
2016.12.06 13:57:07.480, system.simulus, 22
2016.12.06 13:57:10.040, subject.play, B
2016.12.06 13:57:10.042, system.simulus, 23
2016.12.06 13:57:17.990, subject.next, {u'high': 350, u'type': u'A', u'low': 0}
2016.12.06 13:57:18.439, subject.loaded, A
2016.12.06 13:57:18.439, subject.play, A
2016.12.06 13:57:18.441, system.simulus, 47
2016.12.06 13:57:18.442, system.simulus, 46
2016.12.06 13:57:22.642, subject.play, B
2016.12.06 13:57:22.645, system.simulus, 47
2016.12.06 13:57:25.818, subject.play, A
2016.12.06 13:57:25.821, system.simulus, 47
2016.12.06 13:57:25.821, system.simulus, 46
2016.12.06 13:57:27.482, subject.play, B
2016.12.06 13:57:27.485, system.simulus, 47
2016.12.06 13:57:32.867, subject.next, {u'high': 200, u'type': u'A', u'low': 0}
2016.12.06 13:57:33.324, subject.loaded, A
2016.12.06 13:57:33.325, subject.play, A
2016.12.06 13:57:33.327, system.simulus, 3
2016.12.06 13:57:33.328, system.simulus, 2
2016.12.06 13:57:37.189, subject.play, B
2016.12.06 13:57:37.192, system.simulus, 3
2016.12.06 13:57:42.956, subject.next, {u'high': 50, u'type': u'A', u'low': 0}
2016.12.06 13:57:43.386, subject.loaded, A
2016.12.06 13:57:43.386, subject.play, A
2016.12.06 13:57:43.389, system.simulus, 45
2016.12.06 13:57:43.390, system.simulus, 44
2016.12.06 13:57:46.429, subject.play, A
2016.12.06 13:57:46.431, system.simulus, 45
2016.12.06 13:57:46.431, system.simulus, 44
2016.12.06 13:57:47.732, subject.play, B
2016.12.06 13:57:47.734, system.simulus, 45
2016.12.06 13:57:50.577, subject.play, A
2016.12.06 13:57:50.580, system.simulus, 45
2016.12.06 13:57:50.580, system.simulus, 44
2016.12.06 13:57:58.122, subject.next, {u'high': 150, u'type': u'A', u'low': 0}
2016.12.06 13:57:58.560, subject.loaded, A
2016.12.06 13:57:58.560, subject.play, A
2016.12.06 13:57:58.563, system.simulus, 21
2016.12.06 13:57:58.563, system.simulus, 20
2016.12.06 13:58:01.836, subject.play, B
2016.12.06 13:58:01.838, system.simulus, 21
2016.12.06 13:58:08.215, subject.next, {u'high': 300, u'type': u'A', u'low': 0}
2016.12.06 13:58:08.226, subject.pause, None
2016.12.06 13:58:14.051, subject.continue, None
2016.12.06 13:58:14.102, system.stimuliset, [28, 18, 7, 27, 6, 30, 23, 25, 14, 22, 0, 17, 20, 3, 8, 26, 12, 19, 10, 15, 9, 4, 29, 16, 24, 1, 21, 11, 5, 13, 2]
2016.12.06 13:58:14.438, subject.loaded, A
2016.12.06 13:58:14.438, subject.play, A
2016.12.06 13:58:14.441, system.simulus, 53
2016.12.06 13:58:14.441, system.simulus, 52
2016.12.06 13:58:23.618, subject.play, B
2016.12.06 13:58:23.620, system.simulus, 53
2016.12.06 13:58:27.275, subject.play, A
2016.12.06 13:58:27.278, system.simulus, 53
2016.12.06 13:58:27.278, system.simulus, 52
2016.12.06 13:58:28.728, subject.play, B
2016.12.06 13:58:28.731, system.simulus, 53
2016.12.06 13:58:36.053, subject.next, {u'high': 250, u'type': u'A', u'low': 0}
2016.12.06 13:58:36.553, subject.loaded, A
2016.12.06 13:58:36.553, subject.play, A
2016.12.06 13:58:36.555, system.simulus, 37
2016.12.06 13:58:36.556, system.simulus, 36
2016.12.06 13:58:39.897, subject.play, B
2016.12.06 13:58:39.899, system.simulus, 37
2016.12.06 13:58:46.625, subject.next, {u'high': 250, u'type': u'A', u'low': 0}
2016.12.06 13:58:47.100, subject.loaded, A
2016.12.06 13:58:47.100, subject.play, A
2016.12.06 13:58:47.103, system.simulus, 15
2016.12.06 13:58:47.103, system.simulus, 14
2016.12.06 13:58:50.020, subject.play, B
2016.12.06 13:58:50.023, system.simulus, 15
2016.12.06 13:58:52.489, subject.play, A
2016.12.06 13:58:52.491, system.simulus, 15
2016.12.06 13:58:52.492, system.simulus, 14
2016.12.06 13:58:53.595, subject.play, B
2016.12.06 13:58:53.598, system.simulus, 15
2016.12.06 13:58:58.380, subject.next, {u'high': 250, u'type': u'A', u'low': 0}
2016.12.06 13:58:59.573, subject.loaded, A
2016.12.06 13:58:59.574, subject.play, A
2016.12.06 13:58:59.576, system.simulus, 53
2016.12.06 13:58:59.577, system.simulus, 52
2016.12.06 13:59:03.997, subject.play, B
2016.12.06 13:59:04.000, system.simulus, 53
2016.12.06 13:59:05.994, subject.play, A
2016.12.06 13:59:05.996, system.simulus, 53
2016.12.06 13:59:05.997, system.simulus, 52
2016.12.06 13:59:07.234, subject.play, B
2016.12.06 13:59:07.237, system.simulus, 53
2016.12.06 13:59:14.922, subject.next, {u'high': 350, u'type': u'A', u'low': 0}
2016.12.06 13:59:15.371, subject.loaded, A
2016.12.06 13:59:15.371, subject.play, A
2016.12.06 13:59:15.374, system.simulus, 13
2016.12.06 13:59:15.374, system.simulus, 12
2016.12.06 13:59:17.992, subject.play, B
2016.12.06 13:59:17.995, system.simulus, 13
2016.12.06 13:59:20.444, subject.play, A
2016.12.06 13:59:20.447, system.simulus, 13
2016.12.06 13:59:20.447, system.simulus, 12
2016.12.06 13:59:21.795, subject.play, B
2016.12.06 13:59:21.798, system.simulus, 13
2016.12.06 13:59:28.284, subject.next, {u'high': 200, u'type': u'A', u'low': 0}
2016.12.06 13:59:28.754, subject.loaded, A
2016.12.06 13:59:28.755, subject.play, A
2016.12.06 13:59:28.757, system.simulus, 53
2016.12.06 13:59:28.758, system.simulus, 52
2016.12.06 13:59:31.040, subject.play, B
2016.12.06 13:59:31.043, system.simulus, 53
2016.12.06 13:59:33.536, subject.play, A
2016.12.06 13:59:33.539, system.simulus, 53
2016.12.06 13:59:33.539, system.simulus, 52
2016.12.06 13:59:35.077, subject.play, B
2016.12.06 13:59:35.080, system.simulus, 53
2016.12.06 13:59:40.735, subject.play, A
2016.12.06 13:59:40.738, system.simulus, 53
2016.12.06 13:59:40.738, system.simulus, 52
2016.12.06 13:59:42.205, subject.play, B
2016.12.06 13:59:42.208, system.simulus, 53
2016.12.06 13:59:43.567, subject.next, {u'high': 250, u'type': u'A', u'low': 0}
2016.12.06 13:59:44.079, subject.loaded, A
2016.12.06 13:59:44.079, subject.play, A
2016.12.06 13:59:44.082, system.simulus, 47
2016.12.06 13:59:44.082, system.simulus, 46
2016.12.06 13:59:49.212, subject.play, B
2016.12.06 13:59:49.214, system.simulus, 47
2016.12.06 13:59:51.857, subject.play, A
2016.12.06 13:59:51.860, system.simulus, 47
2016.12.06 13:59:51.861, system.simulus, 46
2016.12.06 13:59:53.329, subject.play, B
2016.12.06 13:59:53.331, system.simulus, 47
2016.12.06 14:00:00.938, subject.next, {u'high': 200, u'type': u'A', u'low': 0}
2016.12.06 14:00:01.443, subject.loaded, A
2016.12.06 14:00:01.444, subject.play, A
2016.12.06 14:00:01.446, system.simulus, 51
2016.12.06 14:00:01.446, system.simulus, 50
2016.12.06 14:00:03.838, subject.play, B
2016.12.06 14:00:03.841, system.simulus, 51
2016.12.06 14:00:05.924, subject.play, A
2016.12.06 14:00:05.926, system.simulus, 51
2016.12.06 14:00:05.927, system.simulus, 50
2016.12.06 14:00:07.121, subject.play, B
2016.12.06 14:00:07.124, system.simulus, 51
2016.12.06 14:00:08.099, subject.play, A
2016.12.06 14:00:08.101, system.simulus, 51
2016.12.06 14:00:08.102, system.simulus, 50
2016.12.06 14:00:09.013, subject.play, B
2016.12.06 14:00:09.015, system.simulus, 51
2016.12.06 14:00:13.508, subject.next, {u'high': 0, u'type': u'A', u'low': 0}
2016.12.06 14:00:13.993, subject.loaded, A
2016.12.06 14:00:13.993, subject.play, A
2016.12.06 14:00:13.996, system.simulus, 29
2016.12.06 14:00:13.996, system.simulus, 28
2016.12.06 14:00:17.986, subject.play, B
2016.12.06 14:00:17.989, system.simulus, 29
2016.12.06 14:00:25.242, subject.play, A
2016.12.06 14:00:25.245, system.simulus, 29
2016.12.06 14:00:25.245, system.simulus, 28
2016.12.06 14:00:26.452, subject.play, B
2016.12.06 14:00:26.454, system.simulus, 29
2016.12.06 14:00:27.632, subject.next, {u'high': 250, u'type': u'A', u'low': 0}
2016.12.06 14:00:28.102, subject.loaded, A
2016.12.06 14:00:28.103, subject.play, A
2016.12.06 14:00:28.105, system.simulus, 45
2016.12.06 14:00:28.105, system.simulus, 44
2016.12.06 14:00:31.196, subject.play, B
2016.12.06 14:00:31.199, system.simulus, 45
2016.12.06 14:00:33.256, subject.play, A
2016.12.06 14:00:33.259, system.simulus, 45
2016.12.06 14:00:33.259, system.simulus, 44
2016.12.06 14:00:34.869, subject.play, B
2016.12.06 14:00:34.871, system.simulus, 45
2016.12.06 14:00:42.729, subject.play, B
2016.12.06 14:00:42.732, system.simulus, 45
2016.12.06 14:00:43.957, subject.play, A
2016.12.06 14:00:43.960, system.simulus, 45
2016.12.06 14:00:43.960, system.simulus, 44
2016.12.06 14:00:45.088, subject.play, B
2016.12.06 14:00:45.090, system.simulus, 45
2016.12.06 14:00:46.340, subject.next, {u'high': 350, u'type': u'A', u'low': 0}
2016.12.06 14:00:46.812, subject.loaded, A
2016.12.06 14:00:46.813, subject.play, A
2016.12.06 14:00:46.815, system.simulus, 1
2016.12.06 14:00:46.816, system.simulus, 0
2016.12.06 14:00:49.504, subject.play, B
2016.12.06 14:00:49.506, system.simulus, 1
2016.12.06 14:00:51.612, subject.play, A
2016.12.06 14:00:51.614, system.simulus, 1
2016.12.06 14:00:51.615, system.simulus, 0
2016.12.06 14:00:52.753, subject.play, B
2016.12.06 14:00:52.755, system.simulus, 1
2016.12.06 14:00:57.800, subject.next, {u'high': 0, u'type': u'A', u'low': 0}
2016.12.06 14:00:58.247, subject.loaded, A
2016.12.06 14:00:58.248, subject.play, A
2016.12.06 14:00:58.250, system.simulus, 35
2016.12.06 14:00:58.251, system.simulus, 34
2016.12.06 14:01:02.016, subject.play, B
2016.12.06 14:01:02.018, system.simulus, 35
2016.12.06 14:01:08.353, subject.next, {u'high': 150, u'type': u'A', u'low': 0}
2016.12.06 14:01:08.785, subject.loaded, A
2016.12.06 14:01:08.786, subject.play, A
2016.12.06 14:01:08.788, system.simulus, 41
2016.12.06 14:01:08.789, system.simulus, 40
2016.12.06 14:01:12.009, subject.play, B
2016.12.06 14:01:12.012, system.simulus, 41
2016.12.06 14:01:20.507, subject.play, B
2016.12.06 14:01:20.510, system.simulus, 41
2016.12.06 14:01:21.539, subject.play, A
2016.12.06 14:01:21.541, system.simulus, 41
2016.12.06 14:01:21.542, system.simulus, 40
2016.12.06 14:01:23.185, subject.play, B
2016.12.06 14:01:23.188, system.simulus, 41
2016.12.06 14:01:24.340, subject.next, {u'high': 150, u'type': u'A', u'low': 0}
2016.12.06 14:01:24.790, subject.loaded, A
2016.12.06 14:01:24.790, subject.play, A
2016.12.06 14:01:24.793, system.simulus, 7
2016.12.06 14:01:24.793, system.simulus, 6
2016.12.06 14:01:27.585, subject.play, B
2016.12.06 14:01:27.588, system.simulus, 7
2016.12.06 14:01:29.714, subject.play, A
2016.12.06 14:01:29.717, system.simulus, 7
2016.12.06 14:01:29.717, system.simulus, 6
2016.12.06 14:01:32.436, subject.play, B
2016.12.06 14:01:32.439, system.simulus, 7
2016.12.06 14:01:38.399, subject.next, {u'high': 200, u'type': u'A', u'low': 0}
2016.12.06 14:01:38.856, subject.loaded, A
2016.12.06 14:01:38.857, subject.play, A
2016.12.06 14:01:38.859, system.simulus, 17
2016.12.06 14:01:38.859, system.simulus, 16
2016.12.06 14:01:41.535, subject.play, B
2016.12.06 14:01:41.537, system.simulus, 17
2016.12.06 14:01:46.042, subject.play, A
2016.12.06 14:01:46.044, system.simulus, 17
2016.12.06 14:01:46.045, system.simulus, 16
2016.12.06 14:01:49.914, subject.play, B
2016.12.06 14:01:49.917, system.simulus, 17
2016.12.06 14:01:55.569, subject.next, {u'high': 350, u'type': u'A', u'low': 0}
2016.12.06 14:01:56.007, subject.loaded, A
2016.12.06 14:01:56.007, subject.play, A
2016.12.06 14:01:56.009, system.simulus, 53
2016.12.06 14:01:56.010, system.simulus, 52
2016.12.06 14:01:58.532, subject.play, B
2016.12.06 14:01:58.535, system.simulus, 53
2016.12.06 14:02:00.671, subject.play, A
2016.12.06 14:02:00.673, system.simulus, 53
2016.12.06 14:02:00.674, system.simulus, 52
2016.12.06 14:02:02.354, subject.play, B
2016.12.06 14:02:02.357, system.simulus, 53
2016.12.06 14:02:07.719, subject.next, {u'high': 25, u'type': u'A', u'low': 0}
2016.12.06 14:02:08.195, subject.loaded, A
2016.12.06 14:02:08.196, subject.play, A
2016.12.06 14:02:08.199, system.simulus, 25
2016.12.06 14:02:08.199, system.simulus, 24
2016.12.06 14:02:11.093, subject.play, B
2016.12.06 14:02:11.095, system.simulus, 25
2016.12.06 14:02:18.986, subject.next, {u'high': 200, u'type': u'A', u'low': 0}
2016.12.06 14:02:19.420, subject.loaded, A
2016.12.06 14:02:19.421, subject.play, A
2016.12.06 14:02:19.423, system.simulus, 39
2016.12.06 14:02:19.423, system.simulus, 38
2016.12.06 14:02:21.726, subject.play, B
2016.12.06 14:02:21.729, system.simulus, 39
2016.12.06 14:02:26.396, subject.play, A
2016.12.06 14:02:26.399, system.simulus, 39
2016.12.06 14:02:26.399, system.simulus, 38
2016.12.06 14:02:28.151, subject.play, B
2016.12.06 14:02:28.153, system.simulus, 39
2016.12.06 14:02:33.897, subject.next, {u'high': 200, u'type': u'A', u'low': 0}
2016.12.06 14:02:34.366, subject.loaded, A
2016.12.06 14:02:34.366, subject.play, A
2016.12.06 14:02:34.369, system.simulus, 21
2016.12.06 14:02:34.369, system.simulus, 20
2016.12.06 14:02:44.747, subject.play, B
2016.12.06 14:02:44.750, system.simulus, 21
2016.12.06 14:02:50.634, subject.next, {u'high': 350, u'type': u'A', u'low': 0}
2016.12.06 14:02:51.171, subject.loaded, A
2016.12.06 14:02:51.171, subject.play, A
2016.12.06 14:02:51.174, system.simulus, 31
2016.12.06 14:02:51.174, system.simulus, 30
2016.12.06 14:02:54.526, subject.play, B
2016.12.06 14:02:54.530, system.simulus, 31
2016.12.06 14:03:01.523, subject.play, A
2016.12.06 14:03:01.526, system.simulus, 31
2016.12.06 14:03:01.527, system.simulus, 30
2016.12.06 14:03:03.241, subject.play, B
2016.12.06 14:03:03.244, system.simulus, 31
2016.12.06 14:03:04.354, subject.next, {u'high': 350, u'type': u'A', u'low': 0}
2016.12.06 14:03:04.833, subject.loaded, A
2016.12.06 14:03:04.834, subject.play, A
2016.12.06 14:03:04.836, system.simulus, 19
2016.12.06 14:03:04.837, system.simulus, 18
2016.12.06 14:03:07.760, subject.play, B
2016.12.06 14:03:07.763, system.simulus, 19
2016.12.06 14:03:14.028, subject.next, {u'high': 150, u'type': u'A', u'low': 0}
2016.12.06 14:03:14.521, subject.loaded, A
2016.12.06 14:03:14.521, subject.play, A
2016.12.06 14:03:14.523, system.simulus, 9
2016.12.06 14:03:14.524, system.simulus, 8
2016.12.06 14:03:17.346, subject.play, B
2016.12.06 14:03:17.348, system.simulus, 9
2016.12.06 14:03:26.150, subject.next, {u'high': 150, u'type': u'A', u'low': 0}
2016.12.06 14:03:26.610, subject.loaded, A
2016.12.06 14:03:26.610, subject.play, A
2016.12.06 14:03:26.613, system.simulus, 53
2016.12.06 14:03:26.613, system.simulus, 52
2016.12.06 14:03:28.657, subject.play, B
2016.12.06 14:03:28.660, system.simulus, 53
2016.12.06 14:03:36.860, subject.play, A
2016.12.06 14:03:36.863, system.simulus, 53
2016.12.06 14:03:36.864, system.simulus, 52
2016.12.06 14:03:40.005, subject.play, B
2016.12.06 14:03:40.007, system.simulus, 53
2016.12.06 14:03:47.171, subject.next, {u'high': 200, u'type': u'A', u'low': 0}
2016.12.06 14:03:47.678, subject.loaded, A
2016.12.06 14:03:47.678, subject.play, A
2016.12.06 14:03:47.681, system.simulus, 33
2016.12.06 14:03:47.681, system.simulus, 32
2016.12.06 14:03:50.007, subject.play, A
2016.12.06 14:03:50.010, system.simulus, 33
2016.12.06 14:03:50.010, system.simulus, 32
2016.12.06 14:03:51.645, subject.play, B
2016.12.06 14:03:51.647, system.simulus, 33
2016.12.06 14:03:53.023, subject.play, A
2016.12.06 14:03:53.026, system.simulus, 33
2016.12.06 14:03:53.027, system.simulus, 32
2016.12.06 14:03:54.380, subject.play, B
2016.12.06 14:03:54.382, system.simulus, 33
2016.12.06 14:04:00.073, subject.next, {u'high': 200, u'type': u'A', u'low': 0}
2016.12.06 14:04:00.555, subject.loaded, A
2016.12.06 14:04:00.556, subject.play, A
2016.12.06 14:04:00.558, system.simulus, 49
2016.12.06 14:04:00.559, system.simulus, 48
2016.12.06 14:04:03.740, subject.play, B
2016.12.06 14:04:03.743, system.simulus, 49
2016.12.06 14:04:05.822, subject.play, A
2016.12.06 14:04:05.824, system.simulus, 49
2016.12.06 14:04:05.825, system.simulus, 48
2016.12.06 14:04:06.976, subject.play, B
2016.12.06 14:04:06.980, system.simulus, 49
2016.12.06 14:04:11.453, subject.next, {u'high': 0, u'type': u'A', u'low': 0}
2016.12.06 14:04:11.944, subject.loaded, A
2016.12.06 14:04:11.945, subject.play, A
2016.12.06 14:04:11.947, system.simulus, 3
2016.12.06 14:04:11.948, system.simulus, 2
2016.12.06 14:04:16.027, subject.play, B
2016.12.06 14:04:16.030, system.simulus, 3
2016.12.06 14:04:17.467, subject.play, A
2016.12.06 14:04:17.469, system.simulus, 3
2016.12.06 14:04:17.470, system.simulus, 2
2016.12.06 14:04:23.241, subject.next, {u'high': 100, u'type': u'A', u'low': 0}
2016.12.06 14:04:23.734, subject.loaded, A
2016.12.06 14:04:23.734, subject.play, A
2016.12.06 14:04:23.737, system.simulus, 43
2016.12.06 14:04:23.738, system.simulus, 42
2016.12.06 14:04:26.112, subject.play, B
2016.12.06 14:04:26.115, system.simulus, 43
2016.12.06 14:04:31.525, subject.next, {u'high': 250, u'type': u'A', u'low': 0}
2016.12.06 14:04:31.997, subject.loaded, A
2016.12.06 14:04:31.997, subject.play, A
2016.12.06 14:04:32.000, system.simulus, 23
2016.12.06 14:04:32.000, system.simulus, 22
2016.12.06 14:04:35.248, subject.play, B
2016.12.06 14:04:35.251, system.simulus, 23
2016.12.06 14:04:42.391, subject.next, {u'high': 400, u'type': u'A', u'low': 0}
2016.12.06 14:04:42.832, subject.loaded, A
2016.12.06 14:04:42.833, subject.play, A
2016.12.06 14:04:42.835, system.simulus, 11
2016.12.06 14:04:42.836, system.simulus, 10
2016.12.06 14:04:45.891, subject.play, B
2016.12.06 14:04:45.893, system.simulus, 11
2016.12.06 14:04:53.599, subject.next, {u'high': 150, u'type': u'A', u'low': 0}
2016.12.06 14:04:54.033, subject.loaded, A
2016.12.06 14:04:54.033, subject.play, A
2016.12.06 14:04:54.035, system.simulus, 27
2016.12.06 14:04:54.036, system.simulus, 26
2016.12.06 14:04:57.432, subject.play, B
2016.12.06 14:04:57.434, system.simulus, 27
2016.12.06 14:04:59.769, subject.play, A
2016.12.06 14:04:59.772, system.simulus, 27
2016.12.06 14:04:59.772, system.simulus, 26
2016.12.06 14:05:01.528, subject.play, B
2016.12.06 14:05:01.531, system.simulus, 27
2016.12.06 14:05:08.705, subject.next, {u'high': 300, u'type': u'A', u'low': 0}
2016.12.06 14:05:09.159, subject.loaded, A
2016.12.06 14:05:09.160, subject.play, A
2016.12.06 14:05:09.162, system.simulus, 5
2016.12.06 14:05:09.163, system.simulus, 4
2016.12.06 14:05:11.444, subject.play, B
2016.12.06 14:05:11.447, system.simulus, 5
2016.12.06 14:05:13.523, subject.play, A
2016.12.06 14:05:13.525, system.simulus, 5
2016.12.06 14:05:13.526, system.simulus, 4
2016.12.06 14:05:15.323, subject.play, B
2016.12.06 14:05:15.325, system.simulus, 5
2016.12.06 14:05:21.235, subject.next, {u'high': 300, u'type': u'A', u'low': 0}
2016.12.06 14:05:21.244, subject.end, None
2016.12.06 14:05:41.284, operator.start, {u'operator': u'MrTester', u'subject': 999, u'sessionType': u'B'}
