2016.12.15 10:15:53.776, system.log.file, /Users/int01/intervall/log/int01_subj105_02.log
2016.12.15 10:15:53.876, system.begin, None
2016.12.15 10:15:53.877, system.version, int01_1_0
2016.12.15 10:15:53.877, system.operator, Jim
2016.12.15 10:15:53.877, system.subject, 105
2016.12.15 10:15:53.877, system.session.begin, A
2016.12.15 10:18:58.433, subject.begin, A
2016.12.15 10:18:58.487, system.stimuliset, [18, 22, 3, 30, 9, 2, 6, 21, 16, 13, 25, 4, 20, 12, 5, 27, 29, 23, 1, 7, 26, 8, 15, 11, 10, 17, 14, 0, 24, 28, 19]
2016.12.15 10:18:58.946, subject.loaded, A
2016.12.15 10:18:58.947, subject.play, A
2016.12.15 10:18:58.949, system.simulus, 37
2016.12.15 10:18:58.950, system.simulus, 36
2016.12.15 10:19:15.552, subject.play, B
2016.12.15 10:19:15.555, system.simulus, 37
2016.12.15 10:19:21.977, subject.play, A
2016.12.15 10:19:21.980, system.simulus, 37
2016.12.15 10:19:21.980, system.simulus, 36
2016.12.15 10:19:23.889, subject.play, B
2016.12.15 10:19:23.892, system.simulus, 37
2016.12.15 10:19:31.725, subject.next, {u'high': 200, u'type': u'A', u'low': -1}
2016.12.15 10:19:32.365, subject.loaded, A
2016.12.15 10:19:32.365, subject.play, A
2016.12.15 10:19:32.368, system.simulus, 45
2016.12.15 10:19:32.368, system.simulus, 44
2016.12.15 10:19:37.424, subject.play, B
2016.12.15 10:19:37.426, system.simulus, 45
2016.12.15 10:19:48.754, subject.next, {u'high': 300, u'type': u'A', u'low': -1}
2016.12.15 10:19:49.296, subject.loaded, A
2016.12.15 10:19:49.296, subject.play, A
2016.12.15 10:19:49.298, system.simulus, 7
2016.12.15 10:19:49.299, system.simulus, 6
2016.12.15 10:19:51.932, subject.play, B
2016.12.15 10:19:51.934, system.simulus, 7
2016.12.15 10:20:00.370, subject.next, {u'high': 300, u'type': u'A', u'low': -1}
2016.12.15 10:20:00.902, subject.loaded, A
2016.12.15 10:20:00.902, subject.play, A
2016.12.15 10:20:00.905, system.simulus, 53
2016.12.15 10:20:00.906, system.simulus, 52
2016.12.15 10:20:03.363, subject.play, B
2016.12.15 10:20:03.365, system.simulus, 53
2016.12.15 10:20:14.668, subject.next, {u'high': 100, u'type': u'A', u'low': -1}
2016.12.15 10:20:15.141, subject.loaded, A
2016.12.15 10:20:15.141, subject.play, A
2016.12.15 10:20:15.143, system.simulus, 19
2016.12.15 10:20:15.144, system.simulus, 18
2016.12.15 10:20:17.391, subject.play, B
2016.12.15 10:20:17.393, system.simulus, 19
2016.12.15 10:20:25.174, subject.next, {u'high': 400, u'type': u'A', u'low': -1}
2016.12.15 10:20:25.770, subject.loaded, A
2016.12.15 10:20:25.770, subject.play, A
2016.12.15 10:20:25.772, system.simulus, 5
2016.12.15 10:20:25.773, system.simulus, 4
2016.12.15 10:20:28.129, subject.play, B
2016.12.15 10:20:28.131, system.simulus, 5
2016.12.15 10:20:33.935, subject.next, {u'high': 400, u'type': u'A', u'low': -1}
2016.12.15 10:20:34.494, subject.loaded, A
2016.12.15 10:20:34.494, subject.play, A
2016.12.15 10:20:34.497, system.simulus, 13
2016.12.15 10:20:34.497, system.simulus, 12
2016.12.15 10:20:37.538, subject.play, B
2016.12.15 10:20:37.540, system.simulus, 13
2016.12.15 10:20:49.102, subject.play, B
2016.12.15 10:20:49.104, system.simulus, 13
2016.12.15 10:20:51.261, subject.next, {u'high': 100, u'type': u'A', u'low': -1}
2016.12.15 10:20:51.679, subject.loaded, A
2016.12.15 10:20:51.679, subject.play, A
2016.12.15 10:20:51.682, system.simulus, 43
2016.12.15 10:20:51.682, system.simulus, 42
2016.12.15 10:20:53.842, subject.play, B
2016.12.15 10:20:53.846, system.simulus, 43
2016.12.15 10:20:58.586, subject.next, {u'high': 100, u'type': u'A', u'low': -1}
2016.12.15 10:20:59.078, subject.loaded, A
2016.12.15 10:20:59.078, subject.play, A
2016.12.15 10:20:59.081, system.simulus, 33
2016.12.15 10:20:59.081, system.simulus, 32
2016.12.15 10:21:01.154, subject.play, B
2016.12.15 10:21:01.157, system.simulus, 33
2016.12.15 10:21:09.306, subject.next, {u'high': 200, u'type': u'A', u'low': -1}
2016.12.15 10:21:09.764, subject.loaded, A
2016.12.15 10:21:09.765, subject.play, A
2016.12.15 10:21:09.767, system.simulus, 27
2016.12.15 10:21:09.768, system.simulus, 26
2016.12.15 10:21:14.071, subject.play, B
2016.12.15 10:21:14.074, system.simulus, 27
2016.12.15 10:21:24.943, subject.next, {u'high': 500, u'type': u'A', u'low': -1}
2016.12.15 10:21:25.449, subject.loaded, A
2016.12.15 10:21:25.450, subject.play, A
2016.12.15 10:21:25.452, system.simulus, 51
2016.12.15 10:21:25.453, system.simulus, 50
2016.12.15 10:21:27.464, subject.play, B
2016.12.15 10:21:27.467, system.simulus, 51
2016.12.15 10:21:37.629, subject.next, {u'high': 50, u'type': u'A', u'low': -1}
2016.12.15 10:21:38.112, subject.loaded, A
2016.12.15 10:21:38.112, subject.play, A
2016.12.15 10:21:38.115, system.simulus, 9
2016.12.15 10:21:38.115, system.simulus, 8
2016.12.15 10:21:40.831, subject.play, B
2016.12.15 10:21:40.834, system.simulus, 9
2016.12.15 10:21:45.598, subject.next, {u'high': 200, u'type': u'A', u'low': -1}
2016.12.15 10:21:46.055, subject.loaded, A
2016.12.15 10:21:46.055, subject.play, A
2016.12.15 10:21:46.058, system.simulus, 41
2016.12.15 10:21:46.058, system.simulus, 40
2016.12.15 10:21:51.806, subject.play, B
2016.12.15 10:21:51.809, system.simulus, 41
2016.12.15 10:21:57.794, subject.next, {u'high': 100, u'type': u'A', u'low': -1}
2016.12.15 10:21:58.255, subject.loaded, A
2016.12.15 10:21:58.256, subject.play, A
2016.12.15 10:21:58.258, system.simulus, 25
2016.12.15 10:21:58.259, system.simulus, 24
2016.12.15 10:22:00.395, subject.play, B
2016.12.15 10:22:00.399, system.simulus, 25
2016.12.15 10:22:08.182, subject.next, {u'high': 300, u'type': u'A', u'low': -1}
2016.12.15 10:22:08.692, subject.loaded, A
2016.12.15 10:22:08.693, subject.play, A
2016.12.15 10:22:08.695, system.simulus, 11
2016.12.15 10:22:08.696, system.simulus, 10
2016.12.15 10:22:14.255, subject.play, B
2016.12.15 10:22:14.258, system.simulus, 11
2016.12.15 10:22:19.397, subject.next, {u'high': 300, u'type': u'A', u'low': -1}
2016.12.15 10:22:19.850, subject.loaded, A
2016.12.15 10:22:19.850, subject.play, A
2016.12.15 10:22:19.853, system.simulus, 53
2016.12.15 10:22:19.853, system.simulus, 52
2016.12.15 10:22:22.259, subject.play, B
2016.12.15 10:22:22.261, system.simulus, 53
2016.12.15 10:22:26.701, subject.next, {u'high': 200, u'type': u'A', u'low': -1}
2016.12.15 10:22:27.150, subject.loaded, A
2016.12.15 10:22:27.150, subject.play, A
2016.12.15 10:22:27.152, system.simulus, 53
2016.12.15 10:22:27.153, system.simulus, 52
2016.12.15 10:22:29.020, subject.play, B
2016.12.15 10:22:29.022, system.simulus, 53
2016.12.15 10:22:34.046, subject.next, {u'high': 200, u'type': u'A', u'low': -1}
2016.12.15 10:22:34.560, subject.loaded, A
2016.12.15 10:22:34.561, subject.play, A
2016.12.15 10:22:34.563, system.simulus, 47
2016.12.15 10:22:34.563, system.simulus, 46
2016.12.15 10:22:39.092, subject.play, B
2016.12.15 10:22:39.095, system.simulus, 47
2016.12.15 10:22:44.095, subject.next, {u'high': 100, u'type': u'A', u'low': -1}
2016.12.15 10:22:44.554, subject.loaded, A
2016.12.15 10:22:44.554, subject.play, A
2016.12.15 10:22:44.557, system.simulus, 3
2016.12.15 10:22:44.557, system.simulus, 2
2016.12.15 10:22:46.757, subject.play, B
2016.12.15 10:22:46.760, system.simulus, 3
2016.12.15 10:22:53.484, subject.play, A
2016.12.15 10:22:53.486, system.simulus, 3
2016.12.15 10:22:53.487, system.simulus, 2
2016.12.15 10:22:54.865, subject.play, B
2016.12.15 10:22:54.868, system.simulus, 3
2016.12.15 10:23:09.092, subject.next, {u'high': 10, u'type': u'A', u'low': -1}
2016.12.15 10:23:09.527, subject.loaded, A
2016.12.15 10:23:09.528, subject.play, A
2016.12.15 10:23:09.530, system.simulus, 15
2016.12.15 10:23:09.531, system.simulus, 14
2016.12.15 10:23:11.667, subject.play, B
2016.12.15 10:23:11.670, system.simulus, 15
2016.12.15 10:23:16.416, subject.next, {u'high': 200, u'type': u'A', u'low': -1}
2016.12.15 10:23:16.901, subject.loaded, A
2016.12.15 10:23:16.901, subject.play, A
2016.12.15 10:23:16.904, system.simulus, 53
2016.12.15 10:23:16.904, system.simulus, 52
2016.12.15 10:23:22.699, subject.play, B
2016.12.15 10:23:22.702, system.simulus, 53
2016.12.15 10:23:26.899, subject.next, {u'high': 300, u'type': u'A', u'low': -1}
2016.12.15 10:23:27.350, subject.loaded, A
2016.12.15 10:23:27.351, subject.play, A
2016.12.15 10:23:27.353, system.simulus, 17
2016.12.15 10:23:27.354, system.simulus, 16
2016.12.15 10:23:30.496, subject.play, B
2016.12.15 10:23:30.499, system.simulus, 17
2016.12.15 10:23:39.277, subject.next, {u'high': 400, u'type': u'A', u'low': -1}
2016.12.15 10:23:39.742, subject.loaded, A
2016.12.15 10:23:39.742, subject.play, A
2016.12.15 10:23:39.745, system.simulus, 31
2016.12.15 10:23:39.745, system.simulus, 30
2016.12.15 10:23:43.266, subject.play, B
2016.12.15 10:23:43.268, system.simulus, 31
2016.12.15 10:23:48.066, subject.next, {u'high': 300, u'type': u'A', u'low': -1}
2016.12.15 10:23:48.514, subject.loaded, A
2016.12.15 10:23:48.514, subject.play, A
2016.12.15 10:23:48.516, system.simulus, 23
2016.12.15 10:23:48.517, system.simulus, 22
2016.12.15 10:23:50.548, subject.play, B
2016.12.15 10:23:50.551, system.simulus, 23
2016.12.15 10:23:57.838, subject.next, {u'high': 400, u'type': u'A', u'low': -1}
2016.12.15 10:23:58.260, subject.loaded, A
2016.12.15 10:23:58.260, subject.play, A
2016.12.15 10:23:58.263, system.simulus, 21
2016.12.15 10:23:58.263, system.simulus, 20
2016.12.15 10:24:00.540, subject.play, B
2016.12.15 10:24:00.544, system.simulus, 21
2016.12.15 10:24:06.088, subject.next, {u'high': 400, u'type': u'A', u'low': -1}
2016.12.15 10:24:06.548, subject.loaded, A
2016.12.15 10:24:06.548, subject.play, A
2016.12.15 10:24:06.551, system.simulus, 35
2016.12.15 10:24:06.551, system.simulus, 34
2016.12.15 10:24:08.553, subject.play, B
2016.12.15 10:24:08.556, system.simulus, 35
2016.12.15 10:24:16.577, subject.next, {u'high': 100, u'type': u'A', u'low': -1}
2016.12.15 10:24:17.097, subject.loaded, A
2016.12.15 10:24:17.097, subject.play, A
2016.12.15 10:24:17.100, system.simulus, 29
2016.12.15 10:24:17.101, system.simulus, 28
2016.12.15 10:24:19.692, subject.play, B
2016.12.15 10:24:19.695, system.simulus, 29
2016.12.15 10:24:24.006, subject.next, {u'high': 400, u'type': u'A', u'low': -1}
2016.12.15 10:24:24.471, subject.loaded, A
2016.12.15 10:24:24.471, subject.play, A
2016.12.15 10:24:24.474, system.simulus, 1
2016.12.15 10:24:24.474, system.simulus, 0
2016.12.15 10:24:26.562, subject.play, B
2016.12.15 10:24:26.565, system.simulus, 1
2016.12.15 10:24:31.815, subject.next, {u'high': 200, u'type': u'A', u'low': -1}
2016.12.15 10:24:32.247, subject.loaded, A
2016.12.15 10:24:32.247, subject.play, A
2016.12.15 10:24:32.250, system.simulus, 49
2016.12.15 10:24:32.250, system.simulus, 48
2016.12.15 10:24:34.553, subject.play, B
2016.12.15 10:24:34.556, system.simulus, 49
2016.12.15 10:24:38.559, subject.play, B
2016.12.15 10:24:38.562, system.simulus, 49
2016.12.15 10:24:43.253, subject.next, {u'high': 300, u'type': u'A', u'low': -1}
2016.12.15 10:24:43.770, subject.loaded, A
2016.12.15 10:24:43.770, subject.play, A
2016.12.15 10:24:43.773, system.simulus, 53
2016.12.15 10:24:43.774, system.simulus, 52
2016.12.15 10:24:47.051, subject.play, B
2016.12.15 10:24:47.054, system.simulus, 53
2016.12.15 10:24:51.549, subject.next, {u'high': 400, u'type': u'A', u'low': -1}
2016.12.15 10:24:52.000, subject.loaded, A
2016.12.15 10:24:52.001, subject.play, A
2016.12.15 10:24:52.003, system.simulus, 39
2016.12.15 10:24:52.003, system.simulus, 38
2016.12.15 10:24:54.008, subject.play, B
2016.12.15 10:24:54.011, system.simulus, 39
2016.12.15 10:25:00.552, subject.next, {u'high': 300, u'type': u'A', u'low': -1}
2016.12.15 10:25:00.562, subject.pause, None
2016.12.15 10:25:04.086, subject.continue, None
2016.12.15 10:25:04.140, system.stimuliset, [8, 25, 24, 13, 3, 15, 2, 28, 6, 11, 16, 19, 9, 5, 30, 29, 18, 12, 21, 7, 17, 20, 1, 10, 22, 0, 23, 27, 4, 26, 14]
2016.12.15 10:25:04.511, subject.loaded, A
2016.12.15 10:25:04.511, subject.play, A
2016.12.15 10:25:04.514, system.simulus, 17
2016.12.15 10:25:04.514, system.simulus, 16
2016.12.15 10:25:09.006, subject.play, B
2016.12.15 10:25:09.009, system.simulus, 17
2016.12.15 10:25:13.928, subject.next, {u'high': 400, u'type': u'A', u'low': -1}
2016.12.15 10:25:14.420, subject.loaded, A
2016.12.15 10:25:14.421, subject.play, A
2016.12.15 10:25:14.423, system.simulus, 51
2016.12.15 10:25:14.423, system.simulus, 50
2016.12.15 10:25:17.084, subject.play, B
2016.12.15 10:25:17.087, system.simulus, 51
2016.12.15 10:25:22.430, subject.next, {u'high': 300, u'type': u'A', u'low': -1}
2016.12.15 10:25:22.899, subject.loaded, A
2016.12.15 10:25:22.899, subject.play, A
2016.12.15 10:25:22.902, system.simulus, 49
2016.12.15 10:25:22.903, system.simulus, 48
2016.12.15 10:25:25.403, subject.play, B
2016.12.15 10:25:25.406, system.simulus, 49
2016.12.15 10:25:36.035, subject.next, {u'high': 200, u'type': u'A', u'low': -1}
2016.12.15 10:25:36.484, subject.loaded, A
2016.12.15 10:25:36.484, subject.play, A
2016.12.15 10:25:36.487, system.simulus, 27
2016.12.15 10:25:36.487, system.simulus, 26
2016.12.15 10:25:38.420, subject.play, B
2016.12.15 10:25:38.423, system.simulus, 27
2016.12.15 10:25:48.361, subject.next, {u'high': 400, u'type': u'A', u'low': -1}
2016.12.15 10:25:48.893, subject.loaded, A
2016.12.15 10:25:48.894, subject.play, A
2016.12.15 10:25:48.896, system.simulus, 7
2016.12.15 10:25:48.897, system.simulus, 6
2016.12.15 10:25:51.827, subject.play, B
2016.12.15 10:25:51.830, system.simulus, 7
2016.12.15 10:26:00.540, subject.next, {u'high': 300, u'type': u'A', u'low': -1}
2016.12.15 10:26:00.979, subject.loaded, A
2016.12.15 10:26:00.979, subject.play, A
2016.12.15 10:26:00.982, system.simulus, 31
2016.12.15 10:26:00.982, system.simulus, 30
2016.12.15 10:26:03.056, subject.play, B
2016.12.15 10:26:03.059, system.simulus, 31
2016.12.15 10:26:07.692, subject.next, {u'high': 100, u'type': u'A', u'low': -1}
2016.12.15 10:26:08.121, subject.loaded, A
2016.12.15 10:26:08.122, subject.play, A
2016.12.15 10:26:08.124, system.simulus, 5
2016.12.15 10:26:08.125, system.simulus, 4
2016.12.15 10:26:10.362, subject.play, B
2016.12.15 10:26:10.364, system.simulus, 5
2016.12.15 10:26:19.199, subject.next, {u'high': 400, u'type': u'A', u'low': -1}
2016.12.15 10:26:19.650, subject.loaded, A
2016.12.15 10:26:19.650, subject.play, A
2016.12.15 10:26:19.653, system.simulus, 53
2016.12.15 10:26:19.654, system.simulus, 52
2016.12.15 10:26:21.818, subject.play, B
2016.12.15 10:26:21.821, system.simulus, 53
2016.12.15 10:26:26.336, subject.next, {u'high': 300, u'type': u'A', u'low': -1}
2016.12.15 10:26:26.776, subject.loaded, A
2016.12.15 10:26:26.777, subject.play, A
2016.12.15 10:26:26.779, system.simulus, 13
2016.12.15 10:26:26.779, system.simulus, 12
2016.12.15 10:26:29.142, subject.play, B
2016.12.15 10:26:29.145, system.simulus, 13
2016.12.15 10:26:38.952, subject.next, {u'high': 400, u'type': u'A', u'low': -1}
2016.12.15 10:26:39.396, subject.loaded, A
2016.12.15 10:26:39.396, subject.play, A
2016.12.15 10:26:39.399, system.simulus, 23
2016.12.15 10:26:39.399, system.simulus, 22
2016.12.15 10:26:41.389, subject.play, B
2016.12.15 10:26:41.392, system.simulus, 23
2016.12.15 10:26:45.867, subject.next, {u'high': 400, u'type': u'A', u'low': -1}
2016.12.15 10:26:46.399, subject.loaded, A
2016.12.15 10:26:46.400, subject.play, A
2016.12.15 10:26:46.402, system.simulus, 33
2016.12.15 10:26:46.403, system.simulus, 32
2016.12.15 10:26:49.774, subject.play, B
2016.12.15 10:26:49.777, system.simulus, 33
2016.12.15 10:26:56.353, subject.next, {u'high': 200, u'type': u'A', u'low': -1}
2016.12.15 10:26:56.827, subject.loaded, A
2016.12.15 10:26:56.827, subject.play, A
2016.12.15 10:26:56.830, system.simulus, 39
2016.12.15 10:26:56.830, system.simulus, 38
2016.12.15 10:27:00.322, subject.play, B
2016.12.15 10:27:00.324, system.simulus, 39
2016.12.15 10:27:05.151, subject.next, {u'high': 300, u'type': u'A', u'low': -1}
2016.12.15 10:27:05.584, subject.loaded, A
2016.12.15 10:27:05.584, subject.play, A
2016.12.15 10:27:05.587, system.simulus, 19
2016.12.15 10:27:05.588, system.simulus, 18
2016.12.15 10:27:09.513, subject.play, B
2016.12.15 10:27:09.516, system.simulus, 19
2016.12.15 10:27:15.046, subject.next, {u'high': 400, u'type': u'A', u'low': -1}
2016.12.15 10:27:15.528, subject.loaded, A
2016.12.15 10:27:15.528, subject.play, A
2016.12.15 10:27:15.531, system.simulus, 11
2016.12.15 10:27:15.531, system.simulus, 10
2016.12.15 10:27:18.270, subject.play, B
2016.12.15 10:27:18.272, system.simulus, 11
2016.12.15 10:27:22.589, subject.next, {u'high': 400, u'type': u'A', u'low': -1}
2016.12.15 10:27:23.044, subject.loaded, A
2016.12.15 10:27:23.045, subject.play, A
2016.12.15 10:27:23.047, system.simulus, 53
2016.12.15 10:27:23.048, system.simulus, 52
2016.12.15 10:27:24.872, subject.play, B
2016.12.15 10:27:24.874, system.simulus, 53
2016.12.15 10:27:29.075, subject.next, {u'high': 400, u'type': u'A', u'low': -1}
2016.12.15 10:27:29.503, subject.loaded, A
2016.12.15 10:27:29.503, subject.play, A
2016.12.15 10:27:29.506, system.simulus, 53
2016.12.15 10:27:29.506, system.simulus, 52
2016.12.15 10:27:35.961, subject.play, B
2016.12.15 10:27:35.964, system.simulus, 53
2016.12.15 10:27:40.985, subject.next, {u'high': 300, u'type': u'A', u'low': -1}
2016.12.15 10:27:41.491, subject.loaded, A
2016.12.15 10:27:41.491, subject.play, A
2016.12.15 10:27:41.494, system.simulus, 37
2016.12.15 10:27:41.494, system.simulus, 36
2016.12.15 10:27:44.228, subject.play, B
2016.12.15 10:27:44.231, system.simulus, 37
2016.12.15 10:27:49.726, subject.next, {u'high': 300, u'type': u'A', u'low': -1}
2016.12.15 10:27:50.160, subject.loaded, A
2016.12.15 10:27:50.161, subject.play, A
2016.12.15 10:27:50.164, system.simulus, 25
2016.12.15 10:27:50.164, system.simulus, 24
2016.12.15 10:27:54.345, subject.play, B
2016.12.15 10:27:54.348, system.simulus, 25
2016.12.15 10:28:00.857, subject.next, {u'high': 300, u'type': u'A', u'low': -1}
2016.12.15 10:28:01.288, subject.loaded, A
2016.12.15 10:28:01.288, subject.play, A
2016.12.15 10:28:01.291, system.simulus, 43
2016.12.15 10:28:01.291, system.simulus, 42
2016.12.15 10:28:03.520, subject.play, B
2016.12.15 10:28:03.522, system.simulus, 43
2016.12.15 10:28:11.707, subject.next, {u'high': 100, u'type': u'A', u'low': -1}
2016.12.15 10:28:12.185, subject.loaded, A
2016.12.15 10:28:12.185, subject.play, A
2016.12.15 10:28:12.188, system.simulus, 15
2016.12.15 10:28:12.188, system.simulus, 14
2016.12.15 10:28:14.514, subject.play, B
2016.12.15 10:28:14.517, system.simulus, 15
2016.12.15 10:28:18.784, subject.next, {u'high': 300, u'type': u'A', u'low': -1}
2016.12.15 10:28:19.237, subject.loaded, A
2016.12.15 10:28:19.237, subject.play, A
2016.12.15 10:28:19.240, system.simulus, 35
2016.12.15 10:28:19.240, system.simulus, 34
2016.12.15 10:28:21.558, subject.play, B
2016.12.15 10:28:21.560, system.simulus, 35
2016.12.15 10:28:28.621, subject.next, {u'high': 100, u'type': u'A', u'low': -1}
2016.12.15 10:28:29.048, subject.loaded, A
2016.12.15 10:28:29.048, subject.play, A
2016.12.15 10:28:29.050, system.simulus, 41
2016.12.15 10:28:29.051, system.simulus, 40
2016.12.15 10:28:32.170, subject.play, B
2016.12.15 10:28:32.173, system.simulus, 41
2016.12.15 10:28:35.045, subject.play, B
2016.12.15 10:28:35.048, system.simulus, 41
2016.12.15 10:28:38.564, subject.next, {u'high': 200, u'type': u'A', u'low': -1}
2016.12.15 10:28:39.071, subject.loaded, A
2016.12.15 10:28:39.071, subject.play, A
2016.12.15 10:28:39.074, system.simulus, 3
2016.12.15 10:28:39.074, system.simulus, 2
2016.12.15 10:28:42.414, subject.play, B
2016.12.15 10:28:42.416, system.simulus, 3
2016.12.15 10:28:44.990, subject.play, B
2016.12.15 10:28:44.993, system.simulus, 3
2016.12.15 10:28:50.243, subject.next, {u'high': 10, u'type': u'A', u'low': -1}
2016.12.15 10:28:50.690, subject.loaded, A
2016.12.15 10:28:50.690, subject.play, A
2016.12.15 10:28:50.693, system.simulus, 21
2016.12.15 10:28:50.693, system.simulus, 20
2016.12.15 10:28:53.305, subject.play, B
2016.12.15 10:28:53.307, system.simulus, 21
2016.12.15 10:28:57.917, subject.next, {u'high': 200, u'type': u'A', u'low': -1}
2016.12.15 10:28:58.380, subject.loaded, A
2016.12.15 10:28:58.380, subject.play, A
2016.12.15 10:28:58.383, system.simulus, 45
2016.12.15 10:28:58.383, system.simulus, 44
2016.12.15 10:29:01.363, subject.play, B
2016.12.15 10:29:01.366, system.simulus, 45
2016.12.15 10:29:05.809, subject.next, {u'high': 400, u'type': u'A', u'low': -1}
2016.12.15 10:29:06.294, subject.loaded, A
2016.12.15 10:29:06.294, subject.play, A
2016.12.15 10:29:06.297, system.simulus, 1
2016.12.15 10:29:06.297, system.simulus, 0
2016.12.15 10:29:11.102, subject.play, B
2016.12.15 10:29:11.105, system.simulus, 1
2016.12.15 10:29:16.667, subject.next, {u'high': 300, u'type': u'A', u'low': -1}
2016.12.15 10:29:17.125, subject.loaded, A
2016.12.15 10:29:17.126, subject.play, A
2016.12.15 10:29:17.128, system.simulus, 47
2016.12.15 10:29:17.128, system.simulus, 46
2016.12.15 10:29:19.691, subject.play, B
2016.12.15 10:29:19.695, system.simulus, 47
2016.12.15 10:29:25.487, subject.next, {u'high': 300, u'type': u'A', u'low': -1}
2016.12.15 10:29:25.984, subject.loaded, A
2016.12.15 10:29:25.984, subject.play, A
2016.12.15 10:29:25.987, system.simulus, 53
2016.12.15 10:29:25.988, system.simulus, 52
2016.12.15 10:29:28.865, subject.play, B
2016.12.15 10:29:28.868, system.simulus, 53
2016.12.15 10:29:33.074, subject.next, {u'high': 400, u'type': u'A', u'low': -1}
2016.12.15 10:29:33.523, subject.loaded, A
2016.12.15 10:29:33.523, subject.play, A
2016.12.15 10:29:33.525, system.simulus, 9
2016.12.15 10:29:33.526, system.simulus, 8
2016.12.15 10:29:36.499, subject.play, B
2016.12.15 10:29:36.502, system.simulus, 9
2016.12.15 10:29:43.709, subject.next, {u'high': 400, u'type': u'A', u'low': -1}
2016.12.15 10:29:44.264, subject.loaded, A
2016.12.15 10:29:44.264, subject.play, A
2016.12.15 10:29:44.267, system.simulus, 53
2016.12.15 10:29:44.267, system.simulus, 52
2016.12.15 10:29:50.295, subject.play, B
2016.12.15 10:29:50.298, system.simulus, 53
2016.12.15 10:29:54.171, subject.next, {u'high': 300, u'type': u'A', u'low': -1}
2016.12.15 10:29:54.612, subject.loaded, A
2016.12.15 10:29:54.612, subject.play, A
2016.12.15 10:29:54.614, system.simulus, 29
2016.12.15 10:29:54.615, system.simulus, 28
2016.12.15 10:29:58.019, subject.play, B
2016.12.15 10:29:58.022, system.simulus, 29
2016.12.15 10:30:01.554, subject.next, {u'high': 400, u'type': u'A', u'low': -1}
2016.12.15 10:30:01.565, subject.end, None
2016.12.15 10:30:38.907, operator.end, None
