2016.11.18 15:58:21.180, operator.start, {u'operator': u'TestNisse', u'subject': 999, u'sessionType': u'A'}
2016.11.18 15:58:21.181, system.log.file, /Users/int01/intervall/log/int01_subj999_01.log
2016.11.18 15:58:21.283, system.begin, None
2016.11.18 15:58:21.283, system.version, int01_0_0
2016.11.18 15:58:21.283, system.operator, TestNisse
2016.11.18 15:58:21.283, system.subject, 999
2016.11.18 15:58:21.284, system.session.begin, A
2016.11.18 15:58:52.493, subject.begin, A
2016.11.18 15:58:52.502, subject.loaded, A
2016.11.18 15:58:52.565, system.stimuliset, [21, 9, 27, 3, 17, 11, 8, 20, 0, 7, 22, 15, 23, 2, 10, 14, 29, 18, 6, 30, 24, 5, 26, 25, 28, 16, 4, 19, 1, 12, 13]
2016.11.18 15:58:52.565, subject.play, A
2016.11.18 15:58:55.916, subject.next, {u'high': 123, u'type': u'A', u'low': -1}
2016.11.18 15:58:55.923, subject.loaded, A
2016.11.18 15:58:55.923, subject.play, A
