2017.03.21 11:02:56.934, system.start, int01_1_0
2017.03.21 11:05:31.212, operator.start, {u'operator': u'tester', u'subject': 999, u'sessionType': u'A'}
2017.03.21 11:05:31.218, system.log.file, /Users/int01/intervall/log/int01_subj999_92.log
2017.03.21 11:05:31.718, system.begin, None
2017.03.21 11:05:31.719, system.version, int01_1_0
2017.03.21 11:05:31.719, system.operator, tester
2017.03.21 11:05:31.719, system.subject, 999
2017.03.21 11:05:31.719, system.session.begin, A
2017.03.21 11:05:43.981, subject.begin, A
2017.03.21 11:05:44.073, system.stimuliset, [8, 25, 17, 24, 27, 7, 12, 11, 13, 4, 23, 6, 5, 1, 15, 18, 26, 28, 16, 22, 2, 30, 20, 21, 3, 29, 9, 14, 19, 0, 10]
2017.03.21 11:05:44.553, subject.loaded, A
2017.03.21 11:05:44.553, subject.play, A
2017.03.21 11:05:44.557, system.simulus, 17
2017.03.21 11:05:44.557, system.simulus, 16
2017.03.21 11:05:47.545, subject.play, B
2017.03.21 11:05:47.548, system.simulus, 17
2017.03.21 11:05:49.747, subject.play, A
2017.03.21 11:05:49.750, system.simulus, 17
2017.03.21 11:05:49.750, system.simulus, 16
2017.03.21 11:05:51.848, subject.next, {u'high': 1, u'type': u'A', u'low': -1}
2017.03.21 11:05:52.488, subject.loaded, A
2017.03.21 11:05:52.488, subject.play, A
2017.03.21 11:05:52.491, system.simulus, 51
2017.03.21 11:05:52.491, system.simulus, 50
2017.03.21 11:05:54.784, subject.play, B
2017.03.21 11:05:54.787, system.simulus, 51
2017.03.21 11:06:07.399, operator.end, None
