2017.01.26 13:13:33.063, system.begin, None
2017.01.26 13:13:33.063, system.version, int01_1_0
2017.01.26 13:13:33.063, system.operator, Kim
2017.01.26 13:13:33.063, system.subject, 115
2017.01.26 13:13:33.063, system.session.begin, B
2017.01.26 13:14:42.777, subject.begin, B
2017.01.26 13:14:42.829, system.stimuliset, [16, 6, 23, 10, 17, 15, 27, 13, 5, 8, 25, 11, 18, 21, 7, 4, 20, 26, 29, 0, 24, 19, 30, 28, 3, 14, 1, 22, 9, 12, 2]
2017.01.26 13:14:43.132, subject.loaded, A
2017.01.26 13:14:43.132, subject.play, A
2017.01.26 13:14:43.135, system.simulus, 33
2017.01.26 13:14:43.136, system.simulus, 32
2017.01.26 13:14:50.599, subject.play, A
2017.01.26 13:14:50.602, system.simulus, 33
2017.01.26 13:14:50.602, system.simulus, 32
2017.01.26 13:14:55.636, subject.play, B
2017.01.26 13:14:55.639, system.simulus, 33
2017.01.26 13:15:12.757, subject.next, {u'high': 400, u'type': u'A', u'low': 200}
2017.01.26 13:15:13.231, subject.loaded, A
2017.01.26 13:15:13.232, subject.play, A
2017.01.26 13:15:13.234, system.simulus, 13
2017.01.26 13:15:13.234, system.simulus, 12
2017.01.26 13:15:28.196, subject.play, B
2017.01.26 13:15:28.199, system.simulus, 13
2017.01.26 13:15:36.675, subject.next, {u'high': 0, u'type': u'A', u'low': 0}
2017.01.26 13:15:37.110, subject.loaded, A
2017.01.26 13:15:37.110, subject.play, A
2017.01.26 13:15:37.113, system.simulus, 47
2017.01.26 13:15:37.113, system.simulus, 46
2017.01.26 13:15:47.709, subject.play, B
2017.01.26 13:15:47.712, system.simulus, 47
2017.01.26 13:15:58.442, subject.next, {u'high': 0, u'type': u'A', u'low': 0}
2017.01.26 13:15:58.889, subject.loaded, A
2017.01.26 13:15:58.889, subject.play, A
2017.01.26 13:15:58.892, system.simulus, 21
2017.01.26 13:15:58.892, system.simulus, 20
2017.01.26 13:16:07.997, subject.play, B
2017.01.26 13:16:08.000, system.simulus, 21
2017.01.26 13:16:18.693, subject.next, {u'high': 500, u'type': u'A', u'low': 300}
2017.01.26 13:16:19.184, subject.loaded, A
2017.01.26 13:16:19.184, subject.play, A
2017.01.26 13:16:19.187, system.simulus, 35
2017.01.26 13:16:19.187, system.simulus, 34
2017.01.26 13:16:31.679, subject.play, B
2017.01.26 13:16:31.682, system.simulus, 35
2017.01.26 13:16:39.488, subject.next, {u'high': 200, u'type': u'A', u'low': 100}
2017.01.26 13:16:39.937, subject.loaded, A
2017.01.26 13:16:39.937, subject.play, A
2017.01.26 13:16:39.940, system.simulus, 31
2017.01.26 13:16:39.940, system.simulus, 30
2017.01.26 13:16:49.368, subject.play, B
2017.01.26 13:16:49.371, system.simulus, 31
2017.01.26 13:17:07.188, subject.next, {u'high': 400, u'type': u'A', u'low': 300}
2017.01.26 13:17:07.620, subject.loaded, A
2017.01.26 13:17:07.621, subject.play, A
2017.01.26 13:17:07.623, system.simulus, 53
2017.01.26 13:17:07.624, system.simulus, 52
2017.01.26 13:17:14.758, subject.play, B
2017.01.26 13:17:14.760, system.simulus, 53
2017.01.26 13:17:19.711, subject.next, {u'high': 0, u'type': u'A', u'low': 0}
2017.01.26 13:17:20.131, subject.loaded, A
2017.01.26 13:17:20.132, subject.play, A
2017.01.26 13:17:20.134, system.simulus, 27
2017.01.26 13:17:20.134, system.simulus, 26
2017.01.26 13:17:27.523, subject.play, B
2017.01.26 13:17:27.525, system.simulus, 27
2017.01.26 13:17:32.425, subject.next, {u'high': 0, u'type': u'A', u'low': 0}
2017.01.26 13:17:32.872, subject.loaded, A
2017.01.26 13:17:32.872, subject.play, A
2017.01.26 13:17:32.875, system.simulus, 11
2017.01.26 13:17:32.875, system.simulus, 10
2017.01.26 13:17:48.117, subject.play, B
2017.01.26 13:17:48.119, system.simulus, 11
2017.01.26 13:17:53.850, subject.next, {u'high': 0, u'type': u'A', u'low': 0}
2017.01.26 13:17:54.316, subject.loaded, A
2017.01.26 13:17:54.317, subject.play, A
2017.01.26 13:17:54.319, system.simulus, 17
2017.01.26 13:17:54.320, system.simulus, 16
2017.01.26 13:18:04.288, subject.play, B
2017.01.26 13:18:04.290, system.simulus, 17
2017.01.26 13:18:11.381, subject.next, {u'high': 150, u'type': u'A', u'low': 100}
2017.01.26 13:18:11.791, subject.loaded, A
2017.01.26 13:18:11.792, subject.play, A
2017.01.26 13:18:11.794, system.simulus, 51
2017.01.26 13:18:11.795, system.simulus, 50
2017.01.26 13:18:23.516, subject.play, B
2017.01.26 13:18:23.519, system.simulus, 51
2017.01.26 13:18:30.799, subject.next, {u'high': 250, u'type': u'A', u'low': 200}
2017.01.26 13:18:31.286, subject.loaded, A
2017.01.26 13:18:31.286, subject.play, A
2017.01.26 13:18:31.289, system.simulus, 23
2017.01.26 13:18:31.289, system.simulus, 22
2017.01.26 13:18:38.344, subject.play, B
2017.01.26 13:18:38.346, system.simulus, 23
2017.01.26 13:18:49.226, subject.next, {u'high': 50, u'type': u'A', u'low': 0}
2017.01.26 13:18:49.663, subject.loaded, A
2017.01.26 13:18:49.664, subject.play, A
2017.01.26 13:18:49.666, system.simulus, 37
2017.01.26 13:18:49.667, system.simulus, 36
2017.01.26 13:19:00.275, subject.play, B
2017.01.26 13:19:00.277, system.simulus, 37
2017.01.26 13:19:05.475, subject.next, {u'high': 0, u'type': u'A', u'low': 0}
2017.01.26 13:19:05.917, subject.loaded, A
2017.01.26 13:19:05.918, subject.play, A
2017.01.26 13:19:05.920, system.simulus, 43
2017.01.26 13:19:05.920, system.simulus, 42
2017.01.26 13:19:11.346, subject.play, B
2017.01.26 13:19:11.349, system.simulus, 43
2017.01.26 13:19:17.793, subject.next, {u'high': 300, u'type': u'A', u'low': 200}
2017.01.26 13:19:18.271, subject.loaded, A
2017.01.26 13:19:18.271, subject.play, A
2017.01.26 13:19:18.274, system.simulus, 15
2017.01.26 13:19:18.274, system.simulus, 14
2017.01.26 13:19:26.968, subject.play, B
2017.01.26 13:19:26.971, system.simulus, 15
2017.01.26 13:19:35.154, subject.next, {u'high': 150, u'type': u'A', u'low': 100}
2017.01.26 13:19:35.613, subject.loaded, A
2017.01.26 13:19:35.614, subject.play, A
2017.01.26 13:19:35.616, system.simulus, 9
2017.01.26 13:19:35.617, system.simulus, 8
2017.01.26 13:19:42.770, subject.play, B
2017.01.26 13:19:42.773, system.simulus, 9
2017.01.26 13:19:47.308, subject.next, {u'high': 0, u'type': u'A', u'low': 0}
2017.01.26 13:19:47.754, subject.loaded, A
2017.01.26 13:19:47.754, subject.play, A
2017.01.26 13:19:47.756, system.simulus, 41
2017.01.26 13:19:47.757, system.simulus, 40
2017.01.26 13:20:01.631, subject.play, B
2017.01.26 13:20:01.634, system.simulus, 41
2017.01.26 13:20:15.116, subject.next, {u'high': 0, u'type': u'A', u'low': 0}
2017.01.26 13:20:15.655, subject.loaded, A
2017.01.26 13:20:15.655, subject.play, A
2017.01.26 13:20:15.657, system.simulus, 53
2017.01.26 13:20:15.658, system.simulus, 52
2017.01.26 13:20:24.496, subject.play, B
2017.01.26 13:20:24.499, system.simulus, 53
2017.01.26 13:20:29.186, subject.next, {u'high': 0, u'type': u'A', u'low': 0}
2017.01.26 13:20:29.645, subject.loaded, A
2017.01.26 13:20:29.646, subject.play, A
2017.01.26 13:20:29.648, system.simulus, 53
2017.01.26 13:20:29.649, system.simulus, 52
2017.01.26 13:20:38.109, subject.play, B
2017.01.26 13:20:38.112, system.simulus, 53
2017.01.26 13:20:45.673, subject.next, {u'high': 50, u'type': u'A', u'low': 0}
2017.01.26 13:20:46.110, subject.loaded, A
2017.01.26 13:20:46.110, subject.play, A
2017.01.26 13:20:46.113, system.simulus, 1
2017.01.26 13:20:46.113, system.simulus, 0
2017.01.26 13:20:53.085, subject.play, B
2017.01.26 13:20:53.088, system.simulus, 1
2017.01.26 13:21:02.803, subject.next, {u'high': 50, u'type': u'A', u'low': 0}
2017.01.26 13:21:03.371, subject.loaded, A
2017.01.26 13:21:03.371, subject.play, A
2017.01.26 13:21:03.374, system.simulus, 49
2017.01.26 13:21:03.374, system.simulus, 48
2017.01.26 13:21:10.757, subject.play, B
2017.01.26 13:21:10.759, system.simulus, 49
2017.01.26 13:21:18.676, subject.next, {u'high': 0, u'type': u'A', u'low': 0}
2017.01.26 13:21:19.155, subject.loaded, A
2017.01.26 13:21:19.155, subject.play, A
2017.01.26 13:21:19.157, system.simulus, 39
2017.01.26 13:21:19.158, system.simulus, 38
2017.01.26 13:21:29.238, subject.play, B
2017.01.26 13:21:29.240, system.simulus, 39
2017.01.26 13:21:34.244, subject.next, {u'high': 50, u'type': u'A', u'low': 0}
2017.01.26 13:21:34.748, subject.loaded, A
2017.01.26 13:21:34.748, subject.play, A
2017.01.26 13:21:34.750, system.simulus, 53
2017.01.26 13:21:34.751, system.simulus, 52
2017.01.26 13:21:44.694, subject.play, B
2017.01.26 13:21:44.697, system.simulus, 53
2017.01.26 13:21:49.436, subject.next, {u'high': 0, u'type': u'A', u'low': 0}
2017.01.26 13:21:50.332, subject.loaded, A
2017.01.26 13:21:50.332, subject.play, A
2017.01.26 13:21:50.334, system.simulus, 53
2017.01.26 13:21:50.335, system.simulus, 52
2017.01.26 13:21:56.402, subject.play, B
2017.01.26 13:21:56.404, system.simulus, 53
2017.01.26 13:22:00.661, subject.next, {u'high': 0, u'type': u'A', u'low': 0}
2017.01.26 13:22:01.089, subject.loaded, A
2017.01.26 13:22:01.090, subject.play, A
2017.01.26 13:22:01.092, system.simulus, 7
2017.01.26 13:22:01.092, system.simulus, 6
2017.01.26 13:22:07.933, subject.play, B
2017.01.26 13:22:07.936, system.simulus, 7
2017.01.26 13:22:13.241, subject.next, {u'high': 0, u'type': u'A', u'low': 0}
2017.01.26 13:22:13.666, subject.loaded, A
2017.01.26 13:22:13.667, subject.play, A
2017.01.26 13:22:13.669, system.simulus, 29
2017.01.26 13:22:13.670, system.simulus, 28
2017.01.26 13:22:29.700, subject.play, B
2017.01.26 13:22:29.702, system.simulus, 29
2017.01.26 13:22:37.848, subject.next, {u'high': 150, u'type': u'A', u'low': 100}
2017.01.26 13:22:38.261, subject.loaded, A
2017.01.26 13:22:38.261, subject.play, A
2017.01.26 13:22:38.264, system.simulus, 3
2017.01.26 13:22:38.264, system.simulus, 2
2017.01.26 13:22:44.347, subject.play, B
2017.01.26 13:22:44.349, system.simulus, 3
2017.01.26 13:22:59.899, subject.next, {u'high': 150, u'type': u'A', u'low': 100}
2017.01.26 13:23:00.402, subject.loaded, A
2017.01.26 13:23:00.402, subject.play, A
2017.01.26 13:23:00.405, system.simulus, 45
2017.01.26 13:23:00.405, system.simulus, 44
2017.01.26 13:23:05.736, subject.play, B
2017.01.26 13:23:05.739, system.simulus, 45
2017.01.26 13:23:10.473, subject.next, {u'high': 0, u'type': u'A', u'low': 0}
2017.01.26 13:23:10.951, subject.loaded, A
2017.01.26 13:23:10.952, subject.play, A
2017.01.26 13:23:10.954, system.simulus, 19
2017.01.26 13:23:10.955, system.simulus, 18
2017.01.26 13:23:19.965, subject.play, B
2017.01.26 13:23:19.968, system.simulus, 19
2017.01.26 13:23:24.523, subject.next, {u'high': 0, u'type': u'A', u'low': 0}
2017.01.26 13:23:24.968, subject.loaded, A
2017.01.26 13:23:24.968, subject.play, A
2017.01.26 13:23:24.971, system.simulus, 25
2017.01.26 13:23:24.972, system.simulus, 24
2017.01.26 13:23:31.482, subject.play, B
2017.01.26 13:23:31.485, system.simulus, 25
2017.01.26 13:23:36.120, subject.next, {u'high': 0, u'type': u'A', u'low': 0}
2017.01.26 13:23:36.598, subject.loaded, A
2017.01.26 13:23:36.598, subject.play, A
2017.01.26 13:23:36.601, system.simulus, 5
2017.01.26 13:23:36.601, system.simulus, 4
2017.01.26 13:23:44.656, subject.play, B
2017.01.26 13:23:44.659, system.simulus, 5
2017.01.26 13:23:49.262, subject.next, {u'high': 0, u'type': u'A', u'low': 0}
2017.01.26 13:23:49.270, subject.pause, None
2017.01.26 13:23:55.684, subject.continue, None
2017.01.26 13:23:55.739, system.stimuliset, [9, 20, 26, 29, 24, 0, 8, 11, 7, 6, 1, 15, 27, 19, 10, 16, 25, 23, 30, 17, 21, 12, 13, 2, 14, 5, 28, 22, 3, 18, 4]
2017.01.26 13:23:56.055, subject.loaded, A
2017.01.26 13:23:56.055, subject.play, A
2017.01.26 13:23:56.058, system.simulus, 19
2017.01.26 13:23:56.058, system.simulus, 18
2017.01.26 13:24:03.265, subject.play, B
2017.01.26 13:24:03.268, system.simulus, 19
2017.01.26 13:24:08.562, subject.next, {u'high': 0, u'type': u'A', u'low': 0}
2017.01.26 13:24:09.025, subject.loaded, A
2017.01.26 13:24:09.026, subject.play, A
2017.01.26 13:24:09.028, system.simulus, 41
2017.01.26 13:24:09.028, system.simulus, 40
2017.01.26 13:24:19.543, subject.play, B
2017.01.26 13:24:19.545, system.simulus, 41
2017.01.26 13:24:29.355, subject.next, {u'high': 100, u'type': u'A', u'low': 50}
2017.01.26 13:24:29.788, subject.loaded, A
2017.01.26 13:24:29.788, subject.play, A
2017.01.26 13:24:29.790, system.simulus, 53
2017.01.26 13:24:29.791, system.simulus, 52
2017.01.26 13:24:35.339, subject.play, B
2017.01.26 13:24:35.341, system.simulus, 53
2017.01.26 13:24:44.348, subject.next, {u'high': 50, u'type': u'A', u'low': 0}
2017.01.26 13:24:44.847, subject.loaded, A
2017.01.26 13:24:44.848, subject.play, A
2017.01.26 13:24:44.850, system.simulus, 53
2017.01.26 13:24:44.851, system.simulus, 52
2017.01.26 13:24:57.578, subject.play, B
2017.01.26 13:24:57.580, system.simulus, 53
2017.01.26 13:25:02.691, subject.next, {u'high': 0, u'type': u'A', u'low': 0}
2017.01.26 13:25:03.156, subject.loaded, A
2017.01.26 13:25:03.156, subject.play, A
2017.01.26 13:25:03.158, system.simulus, 49
2017.01.26 13:25:03.159, system.simulus, 48
2017.01.26 13:25:12.471, subject.play, B
2017.01.26 13:25:12.473, system.simulus, 49
2017.01.26 13:25:27.518, subject.next, {u'high': 0, u'type': u'A', u'low': 0}
2017.01.26 13:25:27.965, subject.loaded, A
2017.01.26 13:25:27.965, subject.play, A
2017.01.26 13:25:27.968, system.simulus, 1
2017.01.26 13:25:27.968, system.simulus, 0
2017.01.26 13:25:32.715, subject.play, B
2017.01.26 13:25:32.718, system.simulus, 1
2017.01.26 13:25:42.409, subject.next, {u'high': 150, u'type': u'A', u'low': 100}
2017.01.26 13:25:42.881, subject.loaded, A
2017.01.26 13:25:42.881, subject.play, A
2017.01.26 13:25:42.884, system.simulus, 17
2017.01.26 13:25:42.884, system.simulus, 16
2017.01.26 13:25:49.263, subject.play, B
2017.01.26 13:25:49.266, system.simulus, 17
2017.01.26 13:25:57.736, subject.next, {u'high': 50, u'type': u'A', u'low': 0}
2017.01.26 13:25:58.184, subject.loaded, A
2017.01.26 13:25:58.184, subject.play, A
2017.01.26 13:25:58.187, system.simulus, 23
2017.01.26 13:25:58.187, system.simulus, 22
2017.01.26 13:26:06.660, subject.play, B
2017.01.26 13:26:06.663, system.simulus, 23
2017.01.26 13:26:21.166, subject.next, {u'high': 250, u'type': u'A', u'low': 200}
2017.01.26 13:26:21.625, subject.loaded, A
2017.01.26 13:26:21.625, subject.play, A
2017.01.26 13:26:21.628, system.simulus, 15
2017.01.26 13:26:21.628, system.simulus, 14
2017.01.26 13:26:32.746, subject.play, B
2017.01.26 13:26:32.748, system.simulus, 15
2017.01.26 13:26:44.943, subject.next, {u'high': 70, u'type': u'A', u'low': 50}
2017.01.26 13:26:45.433, subject.loaded, A
2017.01.26 13:26:45.434, subject.play, A
2017.01.26 13:26:45.436, system.simulus, 13
2017.01.26 13:26:45.436, system.simulus, 12
2017.01.26 13:26:54.309, subject.play, B
2017.01.26 13:26:54.311, system.simulus, 13
2017.01.26 13:27:00.988, subject.next, {u'high': 0, u'type': u'A', u'low': 0}
2017.01.26 13:27:01.492, subject.loaded, A
2017.01.26 13:27:01.492, subject.play, A
2017.01.26 13:27:01.495, system.simulus, 3
2017.01.26 13:27:01.495, system.simulus, 2
2017.01.26 13:27:06.845, subject.play, B
2017.01.26 13:27:06.847, system.simulus, 3
2017.01.26 13:27:18.171, subject.next, {u'high': 150, u'type': u'A', u'low': 100}
2017.01.26 13:27:18.645, subject.loaded, A
2017.01.26 13:27:18.646, subject.play, A
2017.01.26 13:27:18.648, system.simulus, 31
2017.01.26 13:27:18.649, system.simulus, 30
2017.01.26 13:27:25.652, subject.play, B
2017.01.26 13:27:25.654, system.simulus, 31
2017.01.26 13:27:34.238, subject.next, {u'high': 100, u'type': u'A', u'low': 50}
2017.01.26 13:27:34.697, subject.loaded, A
2017.01.26 13:27:34.698, subject.play, A
2017.01.26 13:27:34.700, system.simulus, 53
2017.01.26 13:27:34.701, system.simulus, 52
2017.01.26 13:27:42.120, subject.play, B
2017.01.26 13:27:42.122, system.simulus, 53
2017.01.26 13:27:52.949, subject.next, {u'high': 50, u'type': u'A', u'low': 0}
2017.01.26 13:27:53.420, subject.loaded, A
2017.01.26 13:27:53.421, subject.play, A
2017.01.26 13:27:53.423, system.simulus, 39
2017.01.26 13:27:53.423, system.simulus, 38
2017.01.26 13:28:02.464, subject.play, B
2017.01.26 13:28:02.467, system.simulus, 39
2017.01.26 13:28:13.189, subject.next, {u'high': 100, u'type': u'A', u'low': 50}
2017.01.26 13:28:13.680, subject.loaded, A
2017.01.26 13:28:13.681, subject.play, A
2017.01.26 13:28:13.683, system.simulus, 21
2017.01.26 13:28:13.684, system.simulus, 20
2017.01.26 13:28:21.978, subject.play, B
2017.01.26 13:28:21.981, system.simulus, 21
2017.01.26 13:28:28.348, subject.next, {u'high': 300, u'type': u'A', u'low': 200}
2017.01.26 13:28:28.868, subject.loaded, A
2017.01.26 13:28:28.868, subject.play, A
2017.01.26 13:28:28.871, system.simulus, 33
2017.01.26 13:28:28.871, system.simulus, 32
2017.01.26 13:28:37.793, subject.play, B
2017.01.26 13:28:37.796, system.simulus, 33
2017.01.26 13:28:48.668, subject.next, {u'high': 150, u'type': u'A', u'low': 100}
2017.01.26 13:28:49.145, subject.loaded, A
2017.01.26 13:28:49.145, subject.play, A
2017.01.26 13:28:49.148, system.simulus, 51
2017.01.26 13:28:49.148, system.simulus, 50
2017.01.26 13:29:00.536, subject.play, B
2017.01.26 13:29:00.539, system.simulus, 51
2017.01.26 13:29:08.536, subject.next, {u'high': 200, u'type': u'A', u'low': 150}
2017.01.26 13:29:08.999, subject.loaded, A
2017.01.26 13:29:08.999, subject.play, A
2017.01.26 13:29:09.002, system.simulus, 47
2017.01.26 13:29:09.002, system.simulus, 46
2017.01.26 13:29:17.878, subject.play, B
2017.01.26 13:29:17.880, system.simulus, 47
2017.01.26 13:29:33.763, subject.next, {u'high': 80, u'type': u'A', u'low': 0}
2017.01.26 13:29:34.195, subject.loaded, A
2017.01.26 13:29:34.195, subject.play, A
2017.01.26 13:29:34.198, system.simulus, 53
2017.01.26 13:29:34.198, system.simulus, 52
2017.01.26 13:29:43.693, subject.play, B
2017.01.26 13:29:43.696, system.simulus, 53
2017.01.26 13:29:50.643, subject.next, {u'high': 50, u'type': u'A', u'low': 0}
2017.01.26 13:29:51.108, subject.loaded, A
2017.01.26 13:29:51.109, subject.play, A
2017.01.26 13:29:51.111, system.simulus, 35
2017.01.26 13:29:51.111, system.simulus, 34
2017.01.26 13:30:04.797, subject.play, B
2017.01.26 13:30:04.799, system.simulus, 35
2017.01.26 13:30:11.269, subject.next, {u'high': 100, u'type': u'A', u'low': 50}
2017.01.26 13:30:11.732, subject.loaded, A
2017.01.26 13:30:11.732, subject.play, A
2017.01.26 13:30:11.735, system.simulus, 43
2017.01.26 13:30:11.735, system.simulus, 42
2017.01.26 13:30:18.039, subject.play, B
2017.01.26 13:30:18.042, system.simulus, 43
2017.01.26 13:30:36.964, subject.next, {u'high': 300, u'type': u'A', u'low': 200}
2017.01.26 13:30:37.449, subject.loaded, A
2017.01.26 13:30:37.450, subject.play, A
2017.01.26 13:30:37.452, system.simulus, 25
2017.01.26 13:30:37.453, system.simulus, 24
2017.01.26 13:30:46.756, subject.play, B
2017.01.26 13:30:46.759, system.simulus, 25
2017.01.26 13:31:00.377, subject.play, A
2017.01.26 13:31:00.379, system.simulus, 25
2017.01.26 13:31:00.380, system.simulus, 24
2017.01.26 13:31:05.422, subject.next, {u'high': 50, u'type': u'A', u'low': 0}
2017.01.26 13:31:05.882, subject.loaded, A
2017.01.26 13:31:05.882, subject.play, A
2017.01.26 13:31:05.885, system.simulus, 27
2017.01.26 13:31:05.885, system.simulus, 26
2017.01.26 13:31:13.259, subject.play, B
2017.01.26 13:31:13.261, system.simulus, 27
2017.01.26 13:31:18.609, subject.next, {u'high': 0, u'type': u'A', u'low': 0}
2017.01.26 13:31:19.081, subject.loaded, A
2017.01.26 13:31:19.082, subject.play, A
2017.01.26 13:31:19.084, system.simulus, 5
2017.01.26 13:31:19.085, system.simulus, 4
2017.01.26 13:31:29.370, subject.play, B
2017.01.26 13:31:29.372, system.simulus, 5
2017.01.26 13:31:35.588, subject.next, {u'high': 0, u'type': u'A', u'low': 0}
2017.01.26 13:31:36.031, subject.loaded, A
2017.01.26 13:31:36.032, subject.play, A
2017.01.26 13:31:36.034, system.simulus, 29
2017.01.26 13:31:36.034, system.simulus, 28
2017.01.26 13:31:45.811, subject.play, B
2017.01.26 13:31:45.814, system.simulus, 29
2017.01.26 13:31:54.027, subject.next, {u'high': 50, u'type': u'A', u'low': 0}
2017.01.26 13:31:54.486, subject.loaded, A
2017.01.26 13:31:54.487, subject.play, A
2017.01.26 13:31:54.489, system.simulus, 11
2017.01.26 13:31:54.490, system.simulus, 10
2017.01.26 13:32:04.548, subject.play, B
2017.01.26 13:32:04.551, system.simulus, 11
2017.01.26 13:32:09.953, subject.next, {u'high': 0, u'type': u'A', u'low': 0}
2017.01.26 13:32:10.440, subject.loaded, A
2017.01.26 13:32:10.441, subject.play, A
2017.01.26 13:32:10.443, system.simulus, 53
2017.01.26 13:32:10.444, system.simulus, 52
2017.01.26 13:32:19.261, subject.play, B
2017.01.26 13:32:19.263, system.simulus, 53
2017.01.26 13:32:26.325, subject.next, {u'high': 0, u'type': u'A', u'low': 0}
2017.01.26 13:32:26.818, subject.loaded, A
2017.01.26 13:32:26.818, subject.play, A
2017.01.26 13:32:26.821, system.simulus, 45
2017.01.26 13:32:26.821, system.simulus, 44
2017.01.26 13:32:36.832, subject.play, B
2017.01.26 13:32:36.835, system.simulus, 45
2017.01.26 13:32:50.642, subject.next, {u'high': 50, u'type': u'A', u'low': 0}
2017.01.26 13:32:51.452, subject.loaded, A
2017.01.26 13:32:51.453, subject.play, A
2017.01.26 13:32:51.455, system.simulus, 7
2017.01.26 13:32:51.456, system.simulus, 6
2017.01.26 13:32:59.075, subject.play, B
2017.01.26 13:32:59.077, system.simulus, 7
2017.01.26 13:33:04.097, subject.next, {u'high': 0, u'type': u'A', u'low': 0}
2017.01.26 13:33:04.592, subject.loaded, A
2017.01.26 13:33:04.593, subject.play, A
2017.01.26 13:33:04.595, system.simulus, 37
2017.01.26 13:33:04.596, system.simulus, 36
2017.01.26 13:33:11.385, subject.play, B
2017.01.26 13:33:11.388, system.simulus, 37
2017.01.26 13:33:18.286, subject.next, {u'high': 50, u'type': u'A', u'low': 0}
2017.01.26 13:33:18.731, subject.loaded, A
2017.01.26 13:33:18.732, subject.play, A
2017.01.26 13:33:18.734, system.simulus, 9
2017.01.26 13:33:18.734, system.simulus, 8
2017.01.26 13:33:25.523, subject.play, B
2017.01.26 13:33:25.525, system.simulus, 9
2017.01.26 13:33:30.726, subject.next, {u'high': 0, u'type': u'A', u'low': 0}
2017.01.26 13:33:30.739, subject.end, None
2017.01.26 13:37:55.560, operator.end, None
