﻿,LAeq
0,61.8
1,53.2
2,66.6
3,62.3
4,50.9
5,42.0
6,58.2
7,43.5
8,55.2
9,42.4
10,56.2
11,41.6
12,56.6
13,46.4
14,64.1
15,48.5
16,62.3
17,41.2
18,54.3
19,42.3
20,53.3
21,45.3
22,50.0
23,39.9
24,54.5
25,38.3
26,52.8
27,34.7
28,61.7
29,41.6
30,70.2
31,50.4
32,57.8
33,46.8
34,61.7
35,52.7
36,54.1
37,44.5
38,59.3
39,46.9
40,55.4
41,48.8
42,54.9
43,48.9
44,55.5
45,44.2
46,59.2
47,48.4
48,58.9
49,42.7
50,60.6
51,49.3
52,46.6
53,45.1
54,48.5
55,45.1
56,51.8
57,45.1
58,56.1
59,45.1
60,60.8
61,45.1
